250,4,1e-11
0
0.0,0.0,0.0,0.0,0.0,0.0,0.0,0.0,0.0,0.0,0.0,0.0,0.0,0.0,0.0,0.0,0.0,0.0,0.0,0.0,0.0,0.0,0.0,0.0,0.0,0.0,0.0,0.0,0.0,0.0,0.0,0.0,0.0,0.0,0.0,0.0,0.0,0.0,0.0,0.0,0.0,0.0,0.0,0.0,0.0,0.0,0.0,0.0,0.0,0.0,0.0,0.0,0.0,0.0,0.0,0.0,0.0,0.0,0.0,0.0,0.0,0.0,0.0,0.0,0.0,0.0,0.0,0.0,0.0,0.0,0.0,0.0,0.0,0.0,0.0,0.0,0.0,0.0,0.0,0.0,0.0,0.0,0.0,0.0,0.0,0.0,0.0,0.0,0.0,0.0,0.0,0.0,0.0,0.0,0.0,0.0,0.0,0.0,0.0,0.0,0.0,0.0,0.0,0.0,0.0,0.0,0.0,0.0,0.0,0.0,0.0,0.0,0.0,0.0,0.0,0.0,0.0,0.0,0.0,0.0,0.0,0.0,0.0,0.0,0.0,0.0,0.0,0.0,0.0,0.0,0.0,0.0,0.0,0.0,0.0,0.0,0.0,0.0,0.0,0.0,0.0,0.0,0.0,0.0,0.0,0.0,0.0,0.0,0.0,0.0,0.0,0.0,0.0,0.0,0.0,0.0,0.0,0.0,0.0,0.0,0.0,0.0,0.0,0.0,0.0,0.0,0.0,0.0,0.0,0.0,0.0,0.0,0.0,0.0,0.0,0.0,0.0,0.0,0.0,0.0,0.0,0.0,0.0,0.0,0.0,0.0,0.0,0.0,0.0,0.0,0.0,0.0,0.0,0.0,0.0,0.0,0.0,0.0,0.0,0.0,0.0,0.0,0.0,0.0,0.0,0.0,0.0,0.0,0.0,0.0,0.0,0.0,0.0,0.0,0.0,0.0,0.0,0.0,0.0,0.0,0.0,0.0,0.0,0.0,0.0,0.0,0.0,0.0,0.0,0.0,0.0,0.0,0.0,0.0,0.0,0.0,0.0,0.0,0.0,0.0,0.0,0.0,0.0,0.0,0.0,0.0,0.0,0.0,0.0,0.0,
0.0,0.0,0.0,0.0,0.0,0.0,0.0,0.0,0.0,0.0,0.0,0.0,0.0,0.0,0.0,0.0,0.0,0.0,0.0,0.0,0.0,0.0,0.0,0.0,0.0,0.0,0.0,0.0,0.0,0.0,0.0,0.0,0.0,0.0,0.0,0.0,0.0,0.0,0.0,0.0,0.0,0.0,0.0,0.0,0.0,0.0,0.0,0.0,0.0,0.0,0.0,0.0,0.0,0.0,0.0,0.0,0.0,0.0,0.0,0.0,0.0,0.0,0.0,0.0,0.0,0.0,0.0,0.0,0.0,0.0,0.0,0.0,0.0,0.0,0.0,0.0,0.0,0.0,0.0,0.0,0.0,0.0,0.0,0.0,0.0,0.0,0.0,0.0,0.0,0.0,0.0,0.0,0.0,0.0,0.0,0.0,0.0,0.0,0.0,0.0,0.0,0.0,0.0,0.0,0.0,0.0,0.0,0.0,0.0,0.0,0.0,0.0,0.0,0.0,0.0,0.0,0.0,0.0,0.0,0.0,0.0,0.0,0.0,0.0,0.0,0.0,0.0,0.0,0.0,0.0,0.0,0.0,0.0,0.0,0.0,0.0,0.0,0.0,0.0,0.0,0.0,0.0,0.0,0.0,0.0,0.0,0.0,0.0,0.0,0.0,0.0,0.0,0.0,0.0,0.0,0.0,0.0,0.0,0.0,0.0,0.0,0.0,0.0,0.0,0.0,0.0,0.0,0.0,0.0,0.0,0.0,0.0,0.0,0.0,0.0,0.0,0.0,0.0,0.0,0.0,0.0,0.0,0.0,0.0,0.0,0.0,0.0,0.0,0.0,0.0,0.0,0.0,0.0,0.0,0.0,0.0,0.0,0.0,0.0,0.0,0.0,0.0,0.0,0.0,0.0,0.0,0.0,0.0,0.0,0.0,0.0,0.0,0.0,0.0,0.0,0.0,0.0,0.0,0.0,0.0,0.0,0.0,0.0,0.0,0.0,0.0,0.0,0.0,0.0,0.0,0.0,0.0,0.0,0.0,0.0,0.0,0.0,0.0,0.0,0.0,0.0,0.0,0.0,0.0,0.0,0.0,0.0,0.0,0.0,0.0,
0.0,0.0,0.0,0.0,0.0,0.0,0.0,0.0,0.0,0.0,0.0,0.0,0.0,0.0,0.0,0.0,0.0,0.0,0.0,0.0,0.0,0.0,0.0,0.0,0.0,0.0,0.0,0.0,0.0,0.0,0.0,0.0,0.0,0.0,0.0,0.0,0.0,0.0,0.0,0.0,0.0,0.0,0.0,0.0,0.0,0.0,0.0,0.0,0.0,0.0,0.0,0.0,0.0,0.0,0.0,0.0,0.0,0.0,0.0,0.0,0.0,0.0,0.0,0.0,0.0,0.0,0.0,0.0,0.0,0.0,0.0,0.0,0.0,0.0,0.0,0.0,0.0,0.0,0.0,0.0,0.0,0.0,0.0,0.0,0.0,0.0,0.0,0.0,0.0,0.0,0.0,0.0,0.0,0.0,0.0,0.0,0.0,0.0,0.0,0.0,0.0,0.0,0.0,0.0,0.0,0.0,0.0,0.0,0.0,0.0,0.0,0.0,0.0,0.0,0.0,0.0,0.0,0.0,0.0,0.0,0.0,0.0,0.0,0.0,0.0,0.0,0.0,0.0,0.0,0.0,0.0,0.0,0.0,0.0,0.0,0.0,0.0,0.0,0.0,0.0,0.0,0.0,0.0,0.0,0.0,0.0,0.0,0.0,0.0,0.0,0.0,0.0,0.0,0.0,0.0,0.0,0.0,0.0,0.0,0.0,0.0,0.0,0.0,0.0,0.0,0.0,0.0,0.0,0.0,0.0,0.0,0.0,0.0,0.0,0.0,0.0,0.0,0.0,0.0,0.0,0.0,0.0,0.0,0.0,0.0,0.0,0.0,0.0,0.0,0.0,0.0,0.0,0.0,0.0,0.0,0.0,0.0,0.0,0.0,0.0,0.0,0.0,0.0,0.0,0.0,0.0,0.0,0.0,0.0,0.0,0.0,0.0,0.0,0.0,0.0,0.0,0.0,0.0,0.0,0.0,0.0,0.0,0.0,0.0,0.0,0.0,0.0,0.0,0.0,0.0,0.0,0.0,0.0,0.0,0.0,0.0,0.0,0.0,0.0,0.0,0.0,0.0,0.0,0.0,0.0,0.0,0.0,0.0,0.0,0.0,
0.0,0.0,0.0,0.0,0.0,0.0,0.0,0.0,0.0,0.0,0.0,0.0,0.0,0.0,0.0,0.0,0.0,0.0,0.0,0.0,0.0,0.0,0.0,0.0,0.0,0.0,0.0,0.0,0.0,0.0,0.0,0.0,0.0,0.0,0.0,0.0,0.0,0.0,0.0,0.0,0.0,0.0,0.0,0.0,0.0,0.0,0.0,0.0,0.0,0.0,0.0,0.0,0.0,0.0,0.0,0.0,0.0,0.0,0.0,0.0,0.0,0.0,0.0,0.0,0.0,0.0,0.0,0.0,0.0,0.0,0.0,0.0,0.0,0.0,0.0,0.0,0.0,0.0,0.0,0.0,0.0,0.0,0.0,0.0,0.0,0.0,0.0,0.0,0.0,0.0,0.0,0.0,0.0,0.0,0.0,0.0,0.0,0.0,0.0,0.0,0.0,0.0,0.0,0.0,0.0,0.0,0.0,0.0,0.0,0.0,0.0,0.0,0.0,0.0,0.0,0.0,0.0,0.0,0.0,0.0,0.0,0.0,0.0,0.0,0.0,0.0,0.0,0.0,0.0,0.0,0.0,0.0,0.0,0.0,0.0,0.0,0.0,0.0,0.0,0.0,0.0,0.0,0.0,0.0,0.0,0.0,0.0,0.0,0.0,0.0,0.0,0.0,0.0,0.0,0.0,0.0,0.0,0.0,0.0,0.0,0.0,0.0,0.0,0.0,0.0,0.0,0.0,0.0,0.0,0.0,0.0,0.0,0.0,0.0,0.0,0.0,0.0,0.0,0.0,0.0,0.0,0.0,0.0,0.0,0.0,0.0,0.0,0.0,0.0,0.0,0.0,0.0,0.0,0.0,0.0,0.0,0.0,0.0,0.0,0.0,0.0,0.0,0.0,0.0,0.0,0.0,0.0,0.0,0.0,0.0,0.0,0.0,0.0,0.0,0.0,0.0,0.0,0.0,0.0,0.0,0.0,0.0,0.0,0.0,0.0,0.0,0.0,0.0,0.0,0.0,0.0,0.0,0.0,0.0,0.0,0.0,0.0,0.0,0.0,0.0,0.0,0.0,0.0,0.0,0.0,0.0,0.0,0.0,0.0,0.0,
150
1.2346669965679555e-15,7.292306088917933e-16,2.18560770678073e-15,3.606866749880304e-15,5.04056332887043e-15,1.280120910425575e-15,5.247858238213534e-15,1.284795026983276e-15,5.650836627564732e-15,2.7068955729891493e-15,3.5212176326311648e-15,1.3698854316258631e-15,3.2532140001073974e-15,4.011904137516275e-15,9.048648744135413e-16,7.333470717123405e-15,2.8097452230565627e-15,5.2168728991128125e-15,3.8113236853330664e-15,9.459881810813527e-16,1.0185063491071735e-15,6.5081341332793575e-15,4.1149281027912135e-15,8.012658864683883e-15,1.0392998931838023e-15,3.485742685148462e-15,1.4079919017457777e-15,2.508911397907543e-15,2.703099181033225e-15,3.435510523293649e-15,1.6778981976379667e-15,3.2885411385335314e-15,9.103654744350904e-15,5.180985455752156e-15,4.562371713161578e-15,3.6292133840082455e-15,5.8457827012364215e-15,3.014350516846203e-15,3.400043064047524e-15,1.4121806639571912e-15,1.786180253039247e-15,3.748679194549292e-15,5.046193075737475e-16,6.523923839481126e-16,1.580573858895839e-15,2.350325516059217e-15,5.794368409438622e-15,2.8195382242426292e-15,4.682764965019741e-15,1.796060028238193e-15,1.7383221410105494e-15,4.7976996028581684e-15,4.4715843375041916e-15,6.397204886592701e-15,3.330850556515196e-15,2.067921866168963e-15,4.874091869630773e-15,5.541881052386252e-15,1.826783196755687e-15,4.1057050511928917e-16,2.7410819453186706e-15,1.8370455544758857e-15,5.402705619656508e-16,1.1934523093486082e-15,1.3092751431794026e-15,5.0770733974340615e-15,4.967943845369647e-15,2.825452389466294e-15,2.1300021841168394e-15,4.7758263394144025e-15,3.738981594329473e-15,2.9364307605011284e-15,2.3240248263756174e-15,6.075946616522042e-15,3.3261173008224157e-15,3.0401400238529285e-15,5.057555758808943e-15,2.502282013924458e-15,4.802084041439004e-15,3.5620446885260195e-15,4.363818869509084e-15,5.366006588849143e-15,2.2648148541531777e-15,4.230112740451558e-15,2.0463140099237858e-15,3.781040664762916e-15,6.743875184344854e-15,1.246634748656912e-15,5.814548114315429e-15,2.977706352215116e-15,1.7687685266222248e-15,3.757999953807855e-15,2.8695718016492102e-15,5.690603294661393e-15,4.2475519780139344e-15,5.621448855214837e-15,7.040869470669281e-15,7.290889601167589e-15,9.840979506253947e-16,1.7262742734947072e-15,5.2210986160989075e-15,5.325451549965089e-15,2.0127943021671237e-15,1.765054033155514e-15,3.5439498872158878e-15,4.475024172662153e-15,5.193053006173896e-15,5.427472653820374e-15,4.6965956262221355e-15,3.990390392366702e-15,2.2687080503551575e-15,5.886140547729271e-15,4.523714381082865e-15,1.893226361287697e-15,1.7189775099525136e-15,1.4407031079438642e-15,2.569812477650316e-15,1.371893959110239e-15,1.2544472616457798e-15,2.048188576052034e-15,3.9632523725870396e-15,5.7361571712796115e-15,3.982767710762671e-15,1.2418793244943306e-15,3.1854975340947098e-15,1.7203744213489435e-15,6.112435230835124e-15,3.6757914300865635e-15,4.393776184523559e-15,9.90284756173255e-15,1.0204646626475846e-15,6.588036045072075e-15,1.2948322862172212e-15,7.0438711584456375e-15,2.6816299246168323e-15,5.072790305235312e-15,5.661935715030631e-15,5.449942106130773e-15,6.1367043823375184e-15,2.7253262055543096e-15,4.100254407313208e-15,5.3262141015895345e-15,7.318471225132493e-15,2.1346686533227148e-15,1.62156247454396e-15,2.361055948032074e-15,4.1899956936779116e-15,5.112420008372298e-15,2.760148543076484e-15,1.0676624403091258e-15,4.055568689098864e-15,4.496325597906539e-15,8.791718259612132e-15,4.7089899099536876e-15,3.231346717961337e-15,3.3129186439383254e-15,8.354215715302791e-16,5.715465467870337e-15,1.1152952829087773e-15,5.714398448394903e-16,4.869868911325701e-15,1.296125873438839e-15,4.507265028281436e-15,3.2623575427537648e-15,4.327382434910095e-15,6.860555812986229e-15,3.0250998278493343e-15,7.0215622850335716e-15,2.9959037692543377e-15,7.288814513992204e-16,3.050038371768202e-15,4.226080453004857e-15,5.326783990089781e-15,1.325533719516837e-15,4.530787381448044e-15,6.54826236466475e-15,1.473072068967198e-15,4.743062208826884e-15,1.8060362200546664e-15,4.263426920506515e-15,4.959320873746459e-15,4.9255968856494155e-15,4.943463479339555e-15,1.4794718298014402e-15,2.428409414083254e-15,3.186856856215889e-15,5.2183679921809606e-15,4.4302580141843264e-15,1.381354646438711e-15,5.841341570314946e-15,4.317159361563105e-15,4.729199273233319e-15,1.1499444595550328e-15,6.914002144046713e-15,1.0702850747727437e-15,1.2804320917598284e-15,5.0795258837014465e-15,1.0677084770835637e-15,2.5371960579544673e-15,6.187727569648226e-16,4.4943353510218246e-15,2.683242238044038e-15,6.8820639893960344e-15,9.654969225771488e-16,7.036831787506714e-15,4.6561801404006355e-15,3.753908143804818e-15,3.332345516120319e-15,3.752901833450959e-15,4.2536628265834806e-15,3.1460189315650065e-15,2.6721488768983145e-15,3.4949454130018494e-15,3.1764137391997763e-15,8.098304227323019e-15,3.350343650196468e-15,2.3600348134984945e-15,2.444683451110558e-15,5.441269483463894e-15,1.1526419451296382e-15,6.3006614582256395e-15,8.330545360141027e-17,8.690886744975223e-16,2.403453604854454e-15,3.014332387505857e-15,9.860682140063271e-16,5.043404891751768e-15,3.6209312609703826e-15,2.7791285804700054e-15,2.2585588690328636e-15,5.623849806019766e-15,3.085947782014979e-15,2.3828418506300947e-15,2.8566550228810303e-15,2.4183768604788885e-15,3.767280085146008e-16,1.331762704710805e-15,7.33551995467562e-15,3.4587761557193955e-15,1.1521218379159223e-15,4.603262018101575e-15,3.966180277824366e-15,1.4468717752370265e-15,3.097331947954451e-15,5.863220311468242e-15,2.9161079567765163e-15,1.930416724097548e-15,2.3486840817240518e-15,3.557305707278463e-15,4.159615648503056e-15,
0.005836053776085126,0.005165875479715836,0.008248954727409132,0.015761278764349348,0.014083472205158125,0.00284275219975101,0.01304649494800746,0.005308772702955463,0.018169292152209585,0.012640074190821821,0.015683001765127734,0.013259611670396453,0.014086751584657184,0.010294729971808579,0.02006660140607091,0.022000011570972037,0.012893378706308089,0.018430664479169925,0.013041020237781321,0.011902188815810701,0.007573368991421465,0.020393550779726002,0.02880221017923617,0.029622278545988135,0.002920848276907395,0.008512655407933627,0.0026854242805722586,0.01715990511030828,0.010127388131268008,0.00611616198099819,0.008202041976562003,0.0031108378410627576,0.03723139441727211,0.023976706926376736,0.018206446956409546,0.01555366803686893,0.014507563992649264,0.0095545732287954,0.020041313099682,0.010187541770029064,0.0035060805432382295,0.012679502439942291,0.011469792811899209,0.005916968780725745,0.007073908870935035,0.0174666732667286,0.023637515268146565,0.01053827057480177,0.009369970992730726,0.009435421169851417,0.007890154694005313,0.009877624897043616,0.01926774378714772,0.01985535638480833,0.014574102602084605,0.009635767837224807,0.023329399028799474,0.01840255692042863,0.009586093991249114,0.005785382633244949,0.006550175444153702,0.009190341008107505,0.005668996463174859,0.004732143902657908,0.007403089721840462,0.024839034507679467,0.016445378741856562,0.008350820033509522,0.0040820158928317465,0.01662154856677219,0.01912411840671627,0.010115874664099926,0.011921681199551575,0.023950820363511354,0.017022804375520416,0.020258339913026797,0.014612875930416377,0.012354012907996882,0.01810050515370755,0.006221510877699926,0.01792497687149276,0.025123418206061728,0.010422310082811321,0.022935337667687492,0.005371047800435857,0.005278573371993435,0.025632306892889905,0.005497827665757151,0.016111654207067422,0.02081051101845038,0.005835986389236452,0.015893088685632693,0.005562394875307851,0.01594923487060883,0.012345664850242875,0.01739821420779575,0.03404196540250238,0.025082560861047265,0.008163811844212575,0.012064607158977132,0.017736228041007166,0.02098900319616217,0.016419511295107065,0.003600929018848057,0.019306810975075573,0.011467273723456973,0.015506599826675833,0.028710927711064902,0.013246324283597982,0.01605130826090219,0.004077811750499988,0.01614046840508625,0.006024027800270459,0.008644388200467128,0.007266437813925998,0.0108965524894308,0.01415875888158098,0.007552273640838553,0.00042096082681340567,0.012172610281327278,0.018031448609684517,0.018814212298581986,0.015243352001987098,0.008589147441040803,0.016764681583929786,0.003672482194770101,0.025086654383753675,0.016324677813033112,0.007084249390871562,0.027584949299181823,0.0046793033882344655,0.02884460741254746,0.011106076553369634,0.03253253588360304,0.018387235450791635,0.01654189499091075,0.019278320647093873,0.01604878470085777,0.02958523005861654,0.013941626051018974,0.011749196723005574,0.018400774491716815,0.01521373403131137,0.00896191340700628,0.0071287700351086725,0.01168968734772883,0.01007500184491536,0.020521720216834648,0.02152303658240853,0.002734254459725584,0.014555253409447357,0.015577944012698082,0.02715893360814961,0.02382367012190742,0.02140109300395915,0.018889551483058445,0.012240862876453533,0.01429345452687472,0.015365139215694709,0.0017284948089268432,0.013214647756204567,0.00663325016464339,0.019137030306818858,0.013677329255822919,0.01525033487170281,0.0281786682805624,0.010507230059778576,0.020711040157681656,0.007244011004836416,0.004277068787916998,0.010971859071079596,0.017886018746570403,0.0255901814197506,0.005281516903110327,0.01428065239753478,0.033906841677447605,0.005731439919542255,0.012901895069183123,0.013978971523570681,0.01027338155242194,0.012257590268203907,0.018095128235813388,0.017794226655310125,0.015528734637696434,0.007883789111776255,0.01636083681735189,0.017434455826664322,0.014164316972683949,0.006651451081246979,0.0232302301235213,0.015470079697507308,0.014291264285051213,0.020273658248213474,0.026622520904945247,0.0015676167084159546,0.003683705105669389,0.0241403772306258,0.005297554680443045,0.01705739986056859,0.011452595231869228,0.01903834785367739,0.0084256412326874,0.03048710447102792,0.00793024994692659,0.017472822062418358,0.014866062606304905,0.021374298050284735,0.005730720221768835,0.018458560354200956,0.009910524773134918,0.008539993344002456,0.013863330545002762,0.006729754079165791,0.014329898860827923,0.02837445061404633,0.023575624174919037,0.010945795947513059,0.009323062466221693,0.030924657172058702,0.008524195634723558,0.023871580015278435,0.006665236529996727,0.0017141949061241673,0.01328026635873395,0.010968807874180973,0.009548076436427976,0.005870166449259892,0.020499503399405428,0.002074405088571741,0.006906091103636993,0.013662541440938175,0.015237711262936363,0.013000810434009127,0.016875932735388233,0.0117810587298476,0.010906016588355974,0.013129722259763336,0.022488480842845257,0.0023073431396450593,0.007929611168793918,0.011962604484035974,0.023396534693481602,0.006126170018690113,0.009245951982153656,0.013355393449631187,0.012210917939460567,0.011005181794817173,0.015775830927478206,0.018694708203742073,0.015118878274538528,
2.585869315110721e-16,-2.1442809743971447e-16,-3.525832421870039e-16,-3.6987150259612177e-16,-3.550463963137671e-15,8.35638985886283e-17,4.365844411041001e-15,8.380022757732271e-16,-4.820723409041463e-15,2.655813949582043e-15,2.7361278439390094e-15,1.09322173096538e-15,2.527437914326599e-15,3.928344149998746e-15,4.543966643351681e-16,5.314523340595907e-15,-2.2792049292208763e-15,4.127539617298901e-15,3.6388451233789536e-15,7.61264918229208e-16,-3.9463828944313175e-16,2.284250654701574e-15,3.1215124306700932e-15,-1.2914563336913125e-15,-6.590518251288668e-16,5.688940563200674e-16,-9.04905861141249e-16,1.8068560250972573e-15,-1.5903899110938882e-15,-1.3279869919161475e-15,1.6195761050507315e-15,7.635222672519582e-16,6.010256377047666e-15,9.446545647640178e-16,4.492671309364661e-15,-8.216115615803952e-16,4.19801540286981e-15,-1.6377951291221e-15,-1.3628717522155378e-15,-9.841408502554792e-16,1.3797048903249411e-15,1.691199504427431e-15,3.625179861696815e-16,-2.366801087222099e-16,-1.4568657333313428e-15,2.156330555076965e-15,-5.6063515719007065e-15,1.1795330576364674e-16,-3.751332086403346e-15,1.794748511116036e-15,-3.778300460312647e-16,-1.1863402210100195e-15,-3.90767637820872e-15,-4.78063449623301e-16,-3.0352378779422733e-15,2.0457120829297895e-15,4.17192387691141e-15,5.501561446038055e-15,1.486765736890091e-15,-3.8434185438893716e-16,-1.531664547694574e-15,-7.311620921969482e-16,-1.8466746858878312e-16,4.915528022789706e-16,9.637410447067717e-16,4.683739554063145e-15,-4.743637177785393e-16,2.7065434840222224e-15,2.125738988553107e-15,-1.2060354841966475e-15,-1.3574069858066194e-17,-1.788003918007156e-15,-2.28891515290045e-15,-1.2059674092110947e-15,-3.2178947651779736e-15,2.17881499879062e-15,4.758370896142847e-15,2.327458748811841e-15,1.6763928723535072e-15,-1.1444652107174407e-15,3.37040825937419e-16,-2.2779959584390173e-15,-9.890489001512372e-16,4.5366892074232e-16,-2.0228002706591694e-15,-2.5002263445867665e-15,-3.898065131507958e-15,1.083259802131002e-15,-5.7972894081214714e-15,-1.2566842833406391e-15,8.644290302589929e-16,-2.4755598137199166e-15,-2.682010683936068e-15,-7.47106105582866e-16,4.242615721010706e-15,2.8636938760195576e-15,3.2517266780102505e-15,-7.265913717467219e-15,3.496477216009993e-16,8.083937042831607e-16,3.841600373921399e-15,-1.3777624682813778e-15,-1.1398923496721991e-15,-9.591221730967055e-16,1.770937633474867e-15,-2.6724322271634466e-15,-2.848942027981891e-17,-5.4271780281772236e-15,-3.452110714449852e-15,2.8963125344133173e-15,-2.111807502650769e-15,-7.221141642137803e-17,1.6349680945399734e-15,7.236904707770767e-16,-1.4184013040629828e-15,1.440202823538935e-15,2.569768905398468e-15,1.3254105053091188e-15,5.299973915625717e-16,-1.6765708534616309e-15,-2.1203896762080476e-15,-3.3270830633025242e-15,2.538457801310877e-15,-1.0787911491622645e-15,-2.7802946253857853e-15,-1.7179690083897225e-15,2.3017975088858958e-15,3.4680209942674213e-15,4.107495456470889e-15,1.943426796343077e-15,1.0153942380285387e-15,6.317668744746494e-15,5.304439385351742e-16,6.7202737835883554e-15,-1.9590327503989768e-15,-4.012273143646471e-15,-4.562133397983647e-15,1.108159391192375e-15,-2.0328216327029272e-15,1.0845880807964179e-16,-3.687008107930393e-15,-1.1763041006540442e-15,-1.957529108150361e-15,1.6886481346937104e-15,-1.587109651162051e-15,2.1238807037429722e-15,3.1698050756907272e-15,-4.902891187352681e-15,-1.5479632154732345e-15,1.0414449230251425e-15,2.3063770599990845e-15,2.1204784476789132e-15,8.448843559847199e-15,-3.5323372596159212e-15,-3.038872504363897e-15,-1.544587266492174e-15,-6.755334541281341e-16,5.427696096589995e-15,-4.962197519912748e-16,5.359257083308735e-16,4.866932016026165e-15,1.0784455716903629e-16,1.4810061024972815e-15,3.176505212760485e-15,4.326607432045268e-15,6.837159329278112e-15,-2.5511191291690535e-15,5.022983153899492e-15,2.9382546643381216e-15,7.235095250670324e-16,2.6940311529017257e-15,2.1136083863749427e-15,4.6862979028694185e-15,8.326455252981067e-16,3.856551644729348e-15,-2.7199053599277038e-15,-9.144934164012946e-16,3.8040179114487235e-15,1.7657595970734227e-15,-2.5399896986701203e-15,4.9219866922987375e-15,4.815699544632061e-15,4.905710933329806e-15,-9.675735991062526e-17,-1.8983918489709236e-15,-3.094775674233854e-15,-1.819958806999736e-15,-4.140638787753526e-15,7.193364852377058e-16,-3.3084803994560985e-15,7.051935194907117e-16,2.5135520760043682e-15,-1.1392248787304612e-15,-2.258138434285797e-15,7.425276484182033e-16,-6.043655511719486e-16,4.62985083900441e-15,-6.779429256759389e-16,-5.4800852064001556e-17,1.395841826788021e-16,-2.7012133939297135e-15,1.953826258233055e-15,5.214716173872076e-16,-2.9513868875348606e-16,-5.203382061303103e-15,1.0394213216256786e-15,-2.4634020536482417e-15,-2.328384089727939e-15,6.808290437927264e-16,4.234789803554548e-15,-2.999992946964124e-15,2.1801405247200876e-15,-1.0269463113593644e-15,3.1093204141752117e-15,7.696386669260176e-15,-2.7143450231694575e-15,2.203072344289893e-15,-2.155155894023412e-15,-2.559170178343972e-15,9.339469299208533e-16,3.2936244703745043e-15,-6.194602024359062e-19,-6.2920997979745565e-16,2.1702256325436135e-15,-5.750278303291775e-16,-7.486371761619025e-16,1.9621294424386754e-15,-1.6747507817455631e-15,2.526598210635769e-15,-1.5981292276136856e-15,5.5316409504036585e-15,-2.0886684336679385e-15,1.8046557949747296e-15,-4.991400605754567e-17,4.867597582690847e-16,-1.3240785431886447e-16,-1.9708453461631756e-17,-7.334731600884486e-15,-7.832631883545856e-16,1.055385874557531e-15,-2.866647240208205e-15,2.442462320448552e-15,3.3714205111377123e-16,-1.0954536240904544e-15,5.205181527044489e-15,2.915857618771561e-15,-1.3753600170893996e-15,-4.767872124321643e-16,-3.5557160066270825e-15,1.7881928140372543e-15,
-1.2072843042406472e-15,-6.96992017151617e-16,2.156980784631199e-15,-3.587852118323635e-15,3.577916197846744e-15,1.2773905511477188e-15,-2.911944138710031e-15,9.738842062380154e-16,2.948318233323331e-15,5.23388869076985e-16,2.216433630401392e-15,8.255012675495025e-16,2.0482819434148182e-15,-8.145471427675871e-16,-7.824986341128696e-16,-5.0532795708497854e-15,1.6431351463298548e-15,3.190482652064695e-15,1.1335759358957986e-15,5.615775663424273e-16,-9.389439832476815e-16,-6.0940962285847836e-15,2.681192539955492e-15,-7.907897484158847e-15,8.036136881401241e-16,-3.439005905745105e-15,-1.0786967033665702e-15,-1.7406630079139735e-15,2.185727593547116e-15,3.1684669960349758e-15,4.385380275249099e-16,-3.1986773152723367e-15,-6.837641990225914e-15,-5.094137615532768e-15,7.94443298837959e-16,-3.5349885754471687e-15,-4.0681497105370665e-15,-2.530599959186536e-15,3.1149435668067288e-15,1.0127788576550144e-15,-1.1343960119644244e-15,3.3455104154480144e-15,-3.5102899492732357e-16,6.079460081033055e-16,6.12989362444253e-16,-9.350232984693441e-16,-1.4640789994213917e-15,-2.817069898959681e-15,-2.802819169182531e-15,6.86251184461687e-17,1.6967640738309827e-15,4.6487114730083355e-15,2.1737368310359884e-15,6.379317024508173e-15,1.3718223114317958e-15,3.022629953116799e-16,2.520282269678789e-15,6.672834886803499e-16,1.0614445306084495e-15,-1.4439348544439703e-16,-2.27322105046728e-15,-1.6852710061452417e-15,5.077304463706021e-16,-1.0875220720800187e-15,8.862305565116479e-16,1.9594024784706734e-15,4.945244697080366e-15,-8.110509073033831e-16,-1.3469616508171157e-16,4.621038371957425e-15,-3.738956954467658e-15,2.3293062487376568e-15,-4.024410720005209e-16,5.955062543311055e-15,8.415518873310111e-16,-2.120192577497977e-15,-1.7137026195353224e-15,-9.188857653642595e-16,-4.499968675287142e-15,3.3731827321557766e-15,-4.3507836774005394e-15,4.8584731269101325e-15,-2.0374416793377196e-15,4.205714957921315e-15,3.0932198795357905e-16,2.8363950243971823e-15,-5.503175513514373e-15,-6.169654752463746e-16,-4.476664965928435e-16,2.6995332433639113e-15,-1.5431476119979104e-15,-2.8273958445033573e-15,-1.0204219794149279e-15,5.641347208266117e-15,-2.0471846463592813e-16,4.8373489243845416e-15,6.245007327018851e-15,-6.029668537617716e-16,9.19888714576025e-16,1.5252942293882281e-15,-3.53581353101615e-15,-5.144142765516989e-15,1.6589111893031618e-15,1.4817221051981372e-15,3.0697492896717056e-15,-3.58942158810146e-15,-5.192974858196779e-15,5.655137874842312e-17,-3.184484588034527e-15,2.7449206156996213e-15,-8.290387744214508e-16,5.88569758473548e-15,-4.217922608518589e-15,-1.749450815993724e-15,9.710928999611589e-16,3.7964092371458e-17,1.4964729680714847e-17,-3.5409042271627847e-16,-1.136987553664272e-15,-1.1765146052612343e-15,3.3483304779915515e-15,4.672688453503829e-15,-3.0689852767417566e-15,6.152023350863161e-16,-1.554784980559818e-15,-9.094303625977131e-17,5.662472311565075e-15,1.2183074410091368e-15,1.5600481514227066e-15,-9.710277139102056e-15,1.0160053686320699e-16,1.8679616063565546e-15,-1.1811942590030687e-15,-2.1104599428554276e-15,1.8312099102682625e-15,3.1040080060564655e-15,3.3532752496837492e-15,5.336089553585966e-15,5.790231159963781e-15,-2.723167202657779e-15,-1.793894483169769e-15,-5.194695883182739e-15,-7.051815430358082e-15,1.3058628322584513e-15,-3.3248731409995674e-16,-1.0313660581994608e-15,2.740145925888756e-15,-1.4486187721360057e-15,2.285219872001161e-15,2.3515007708268526e-16,-3.335905012003348e-15,3.964910470025625e-15,-2.4313273036812392e-15,3.114029456568245e-15,-1.0985697583224304e-15,2.9308156061998146e-15,-4.915117033518463e-16,-1.790715107849381e-15,9.988240715022278e-16,-1.9831069416507096e-16,1.691034147380077e-16,-1.2916314610935302e-15,4.257001169783098e-15,7.434994082498307e-16,-8.18954634828894e-17,-5.661080896475671e-16,1.6257368044187849e-15,4.906320123906285e-15,-5.848922312081262e-16,-8.832970808913247e-17,1.4300105651544766e-15,3.659564944677885e-15,-2.532437490371381e-15,-1.0313782384640373e-15,-2.3780335799614317e-15,-5.956664740399726e-15,-1.1548346685694838e-15,-2.8330349179244242e-15,-3.792886413965645e-16,-3.4242169086010503e-15,-6.073800536825946e-16,-1.0346702739277756e-15,-6.097798046609461e-16,-1.4763044768878632e-15,1.5143581710311899e-15,-7.605393797697872e-16,-4.890717170583763e-15,1.5755305460686767e-15,-1.179277609489674e-15,-4.814065723222346e-15,-4.259174456769793e-15,4.0059183375556574e-15,1.5664908471766612e-16,-6.534847852818292e-15,7.708195849975729e-16,1.128826214332869e-15,-2.089512960419992e-15,8.248604618734318e-16,-2.5366041676053337e-15,-6.028233412101245e-16,-3.592004516686913e-15,1.8391171416368776e-15,6.862278929510315e-15,9.19280948299712e-16,4.737279465027791e-15,-4.538680074207831e-15,2.832574213362425e-15,2.383936695784725e-15,3.690629212566314e-15,4.002533722139005e-16,-9.473528571397966e-16,1.5451106474237196e-15,-3.3406623165845515e-15,-6.494080416582433e-16,2.5195562298770234e-15,1.9639586730903964e-15,-8.463076076403354e-16,-1.1540278370082655e-15,-4.801881047042952e-15,6.755194932521552e-16,-5.371254291068364e-15,8.330315041338063e-17,5.995080695563202e-16,-1.0328165057446278e-15,-2.9589766367299487e-15,6.41773247449565e-16,-4.64607156135815e-15,3.2103509178460836e-15,-1.1575219863127252e-15,-1.5959546161260017e-15,1.014216464314137e-15,2.271681731123946e-15,1.556005381346215e-15,2.856218918736921e-15,2.3688840362140033e-15,-3.5269271684293613e-16,-1.3316168662647636e-15,-1.0754230995628663e-16,3.3689213812645804e-15,-4.621097112020024e-16,-3.601715536727361e-15,3.1248942077120046e-15,-1.4070441255868075e-15,-2.89714455167263e-15,2.6987844840462076e-15,-3.8209457299856875e-17,-1.3545824271956858e-15,-2.2997806134075308e-15,1.063370831454519e-16,-3.755631611739499e-15,
300
2.563217716117424e-15,1.5389721702967218e-15,8.558012399109912e-15,1.7178210175505894e-14,1.1943670984008669e-14,7.043014880665714e-15,1.6969897884359664e-14,4.523535674165524e-15,1.3212433963650424e-14,6.911664965073054e-15,1.1099245314907412e-14,7.273676952062353e-15,4.85408258049877e-15,4.940744464676906e-15,9.79641358650794e-15,1.5170700750931697e-14,8.773896881215205e-15,2.0792567171331748e-14,7.820291469567832e-15,6.187087054024764e-15,6.153125028552855e-15,1.77786673004902e-14,1.7101372685193844e-14,1.974840698678596e-14,7.883760926578344e-15,7.859331238713775e-15,3.514695137405444e-15,7.995032666279324e-15,8.191510479551891e-15,6.7253184280877906e-15,9.23829192254626e-15,7.272366629310733e-15,2.8063972690176426e-14,1.7574176464046254e-14,1.7794107371110558e-14,9.614730899905212e-15,1.240441000083625e-14,8.50551196977341e-15,1.1705414022444961e-14,3.650692117686702e-15,4.874384805252828e-15,1.2001727640079486e-14,1.1126808409663553e-14,3.894750442441563e-15,8.406083632802645e-15,1.0192376791020928e-14,1.5426930277216824e-14,8.541538417111262e-15,9.85074428107464e-15,6.386618782357638e-15,4.942907934451108e-15,1.1680119884528468e-14,1.2728848256718959e-14,1.928999726525582e-14,8.988862347886299e-15,3.4248243441206243e-15,2.0497166956143212e-14,1.1285629300229924e-14,6.692808815474129e-15,1.7750671212593823e-15,4.7266530349254896e-15,6.195586490145471e-15,6.9255467226870075e-15,2.376031201189103e-15,6.054891970554175e-15,1.74330391323161e-14,1.1080106374591506e-14,9.731157050074186e-15,4.999352410969977e-15,1.438888947386116e-14,1.5465654742800825e-14,1.860919069514619e-15,7.36467291172514e-15,2.019661553631864e-14,6.538774207060245e-15,1.0880546390533766e-14,9.134206039676406e-15,5.869887446718592e-15,1.4051346854569833e-14,3.9976987243082925e-15,1.58267605003966e-14,1.7473787022320923e-14,1.4241734610056106e-14,1.5791183357792612e-14,5.764458453057159e-15,4.216669466723252e-15,2.1074197249849323e-14,5.913046052334162e-15,1.9538510312047415e-14,1.4866302219279108e-14,3.96403319088104e-15,1.3212921604290413e-14,4.5165711356176234e-15,1.2176804926398401e-14,1.1285251632943134e-14,1.382708666404548e-14,1.9695008396951573e-14,1.6392222599133727e-14,2.8354947553526904e-15,1.0074048137073638e-14,1.2428467400164926e-14,1.7290746659300027e-14,6.944504966301396e-15,1.7586381930694446e-15,1.283143534957413e-14,8.974946770513712e-15,1.3421987486338529e-14,2.032708192059266e-14,8.300989021663851e-15,1.1174719615866355e-14,1.5558744823911658e-15,1.250181511951445e-14,7.532908539353152e-15,5.086953089377486e-15,6.298539485076128e-15,6.052431442314466e-15,1.0885716004025554e-14,1.4086827373514413e-15,2.623033873768461e-15,4.793233291882228e-15,7.051092470218466e-15,1.6421954575073872e-14,9.110031760230539e-15,8.797198301716303e-15,1.0018775343321812e-14,3.8648966097911956e-15,1.548183556615782e-14,1.2575490451882946e-14,7.222224955879148e-15,2.0340577949466563e-14,1.500189116768296e-15,1.42359336120497e-14,3.88410565166599e-15,2.476816873749985e-14,1.6797510262421164e-14,9.6376141932615e-15,1.4137478947027162e-14,1.1160229452313686e-14,2.3776915456447956e-14,9.10243023544973e-15,1.0892977259912003e-16,8.7063497956422e-15,1.3781649175386857e-14,7.212434795070284e-16,4.277045150947403e-15,7.952906261959485e-15,1.25765260342439e-14,1.9510729494523382e-14,1.1902876446590057e-14,5.543250235068857e-16,1.2685201536855896e-14,1.1979759024948885e-14,2.2056248089507254e-14,1.6105636145147838e-14,1.2706457815300439e-14,9.031875847008166e-15,5.5046929540602736e-15,1.4483935076204737e-14,3.762601687383728e-15,2.8539088331144277e-15,1.1509238694937463e-14,5.878368540313896e-15,1.3769619734124368e-14,4.129672027835017e-15,2.418852406485827e-15,2.2215471747316398e-14,6.450272175201e-15,1.9603361527562876e-14,3.1225016956374294e-15,6.723083773079588e-15,7.288339833980711e-15,1.553164201640173e-14,1.2751582939310755e-14,7.121389875939209e-15,1.6179379164457713e-14,2.0872909400594663e-14,5.442513375566916e-15,9.805483987292783e-15,1.201454850292769e-14,1.0225515645124099e-14,3.982979528795379e-15,1.3114298134075964e-14,1.3537969224581505e-14,9.06028981417318e-15,3.2500763239874375e-15,9.516912572721746e-15,1.3531686105189314e-14,9.868730010180934e-15,2.6435267235927735e-15,2.1699808487570078e-14,9.154671925129933e-15,8.678115767726925e-15,7.185871436168416e-15,1.851997645318853e-14,6.500786349196504e-15,1.559043855797659e-15,1.6618843172397595e-14,6.469634248566414e-15,1.2851709435303521e-14,5.536492809036559e-15,1.0124705167850238e-14,1.2980189316887599e-14,2.637998702723995e-14,4.70873345491836e-15,1.1985991521985173e-14,1.2664472492747476e-14,1.742663325403765e-14,4.87334095454659e-15,1.6364947705078376e-14,8.872052070888682e-15,7.590664506977928e-15,6.097336490005841e-15,4.320240023498603e-15,1.177376329973935e-14,2.0185700953066482e-14,2.0666882173047294e-14,4.70740271458096e-15,7.984486344904479e-15,1.97250068565594e-14,1.5880686933114764e-15,1.0963615177107405e-14,5.449461646905547e-15,3.51998741661365e-15,1.6746034526138524e-15,1.2426931185270436e-14,8.888490624048088e-15,1.360647154534409e-14,1.2661641008595115e-14,8.577070847403993e-15,7.958382754291005e-15,9.082494549390494e-15,8.597372791134408e-15,1.137166955421712e-14,1.0678024709009122e-14,8.089624924171878e-15,1.0303904876677188e-14,7.866658233187883e-15,1.7164041828648472e-14,8.618292649746527e-15,2.846102423280376e-15,1.1646629678250638e-14,1.7172279582682e-14,6.8593680731709175e-15,8.683714249431458e-15,1.1061745062954509e-14,1.0729143934887828e-14,6.875670965513549e-15,1.1058782304449542e-14,1.4892500334472532e-14,1.3227706674176462e-14,
0.0067634846905904435,0.003553445582792225,0.026258981776961014,0.04514820120206898,0.01915331213107769,0.018103440066052207,0.040094296976680856,0.009063840067101328,0.013641375211365733,0.017030086054953805,0.017149968154090475,0.0182973449406993,0.016237794326146745,0.0017777811434068137,0.020751441969397072,0.01855682602111458,0.02107615803490726,0.048568185345612636,0.0299414348134332,0.020954861354641,0.012668998524378647,0.029106898067373814,0.02557490199952731,0.03095552632121072,0.01837639146724136,0.01237782247688597,0.018434715727507073,0.022923171336424016,0.01903095567631684,0.023363212739438387,0.012747686499388658,0.019223323965429077,0.03805450114893654,0.039347798390746744,0.02947786884574808,0.00945769143127456,0.01676326004383076,0.008674189221645291,0.01662467963394482,0.007000465762775259,0.00834266048548568,0.023844790491384032,0.038500053237811485,0.016914888125249907,0.018925018759735696,0.020659574647685194,0.008150761022949394,0.016785256357170774,0.019797187956312072,0.013680248959187272,0.022698881473782354,0.012930295838778753,0.022243609131836404,0.03551845186690977,0.008330723537749643,0.018266841815589626,0.04880525388620589,0.017355090701789783,0.010503240417488308,0.011209266000723564,0.008757377156547895,0.010010420192558317,0.03237922696478247,0.014056145158253704,0.012503448628187046,0.036157160433037634,0.017413808936636518,0.02533565179836433,0.0028274101915276954,0.02693808416723893,0.0281627911828281,0.007102249003642151,0.011236051678521616,0.04663507568437096,0.011041131441993278,0.019250225476404124,0.008012356556403963,0.01471952362563386,0.020006543044699794,0.0045357923834460825,0.027190136416160426,0.024380384831135866,0.04403243830272683,0.026861982888270144,0.015372171768090581,0.015651414574766882,0.02867180404220165,0.01667799402713964,0.03922063453395403,0.024177170166521236,0.009287054147172714,0.03407015939028544,0.007574588555252895,0.020996036148633143,0.025203053789996165,0.019615722382988917,0.023923512203689067,0.02558485433953927,0.009168235453051113,0.028571291500955113,0.01647286058054743,0.03547586377137504,0.008429930647901486,0.01240593538095914,0.018953660669807987,0.01385246364749056,0.026055377529313428,0.03695851583124215,0.01940206768375293,0.02287887119986577,0.011820389261195295,0.02008558707601789,0.00641276727122714,0.017781655936712677,0.01577253375394406,0.007120156618209059,0.017918556723333267,0.013455222788035444,0.003110846821016022,0.014176842605212504,0.011115734803881628,0.025363085484487482,0.0100009356914847,0.02152951121803402,0.012374932672539874,0.005654111023649896,0.02596669035185021,0.02153699113951966,0.011076875331280588,0.026474687930259994,0.01149170631966099,0.009015936221255561,0.005106169607105939,0.04294357189278396,0.037680758846429255,0.015894808680096524,0.019685567480683445,0.021270285794976675,0.04326240558281141,0.019734028933125192,0.034489355214196375,0.015314800215019393,0.010267132387088197,0.006735290384684427,0.007015216556928116,0.014660140711282101,0.023705473703452072,0.04152715877200132,0.03185957200858818,0.004767769480631042,0.03158691528629027,0.012671412136892258,0.03250755600227982,0.029266932759765468,0.034355258854564905,0.006082771635616218,0.010562247347887188,0.014005846579934391,0.01782870362592548,0.004488291351535777,0.02351021816353535,0.018558913031508768,0.015057875520062781,0.009994348864785852,0.016953792831504767,0.03631740144370104,0.007845413641080263,0.03022521549825477,0.009474097186740575,0.021628100245205503,0.013978278230475618,0.029121639712479087,0.01367011280509801,0.029022712167654705,0.03132004508309557,0.028942572202243486,0.014186638733869729,0.021878842698584137,0.025366052886480854,0.01725322438922785,0.004332813358771344,0.026031597569999985,0.02152969097102764,0.023300508205410884,0.006128927103767218,0.01394900491472413,0.031568602034988125,0.007516671403517129,0.005412963768086466,0.03977550366834369,0.001855361197959211,0.02126035008484641,0.01895948550940788,0.018659591067142243,0.018204468944563918,0.017702708763219808,0.024391559183303123,0.019949663986700568,0.025621915290686994,0.00783632583408638,0.011213800502202914,0.02692923643493499,0.05281093579657534,0.013734478795826767,0.009022237881377355,0.020747577016026027,0.047836272337371116,0.0025030207277102396,0.03928076849968455,0.023141170152310785,0.026565350208351147,0.013948926421847597,0.00551295112502459,0.033190525733176046,0.02240598185395735,0.0364385530330028,0.027301181930974496,0.01924104210549487,0.03214025020173429,0.015520496934090878,0.010402228759167473,0.027492367767073797,0.009096178769094077,0.00856144085977255,0.033430572742075546,0.030480054351297046,0.03334008426790906,0.02690897458117918,0.016384328630769624,0.013267866863177725,0.0015933541874589053,0.017333909397109784,0.025557945631250675,0.024456261053932903,0.01928390445185642,0.031748397931076346,0.01456953591910055,0.015613552793513645,0.02329036364659474,0.0069385553217424945,0.017547249934181032,0.030065428905848884,0.014763081758335003,0.020590145787001236,0.009926722751938632,0.03407694364180391,0.016388031807349476,0.022396582814700763,0.02676873341718757,0.029800996766493518,
-1.5504679588653824e-15,-8.599139175128277e-16,7.274086627205313e-15,-3.806664622601952e-15,-9.739588123301723e-15,-5.879723126797628e-15,1.6878729756486383e-14,8.012143879395927e-16,-1.1600548182235026e-14,6.553611477828504e-15,7.023061188200088e-15,6.092311995159044e-15,4.631789128410195e-15,3.5767286238872276e-15,-3.10937351604302e-15,9.7523968201639e-15,-4.3199657974479353e-17,1.9653358768030334e-14,7.18382087165843e-15,6.1389227219972975e-15,-5.9427777544152e-15,3.7408499526335396e-15,9.473957852144287e-15,-3.591798949657146e-15,-6.79779188440398e-15,7.007744401788127e-15,3.3254872294409718e-15,7.264398700017385e-15,-5.859864586335186e-15,-4.800407837696459e-15,8.025488717365935e-15,4.9582336106077665e-16,1.5620597211500226e-14,7.426028064056422e-15,1.7782381267333647e-14,-4.01081875326726e-15,9.524022681387335e-15,-6.15000390361965e-15,-2.352096781774628e-15,-2.0998397832657755e-15,3.27686925123021e-15,-2.45080897410174e-15,9.201093806230632e-15,5.775768846441227e-16,-7.735942845619856e-15,1.0179559334873738e-14,-1.496037111802306e-14,-1.1535473814898877e-15,-7.266510183586164e-15,2.626127490225359e-15,-3.321274295684978e-15,-7.958608166058914e-15,-1.0926641859748851e-14,8.565707472908723e-16,-8.98712054883737e-15,2.4870620260132952e-15,1.7878404934345668e-14,1.1083704849292662e-14,4.445921020090652e-15,1.547539886588513e-15,-4.167709792243136e-15,1.6624281519080668e-15,-2.987478052535223e-16,-1.80583087712784e-15,-2.0965098137701527e-15,8.971301954498491e-15,-2.30964665425508e-15,8.823861595074825e-15,3.2069279979689634e-15,-7.875922659667094e-16,5.1846410709982415e-15,-1.1092656739996837e-15,-7.323376760916437e-15,-1.7335091385887355e-15,-6.401164754372548e-15,6.31245511681538e-15,9.043685185882038e-15,3.2548255551466805e-15,9.410732061341466e-15,-1.9511914003342504e-15,1.628039707711992e-15,-7.404367091240506e-15,6.178790997995083e-15,3.38344483602741e-16,-5.734185435467933e-15,-4.068419798690103e-15,-1.3001710211695429e-14,3.27295240063824e-15,-1.9522340837127792e-14,-1.2385682567080719e-14,-6.17299480000167e-16,-1.3195523644199734e-14,-3.859315836684026e-15,1.0847663771393254e-15,9.973572669315421e-15,4.447691913537752e-15,1.0753954773977911e-14,-1.6158568999797076e-14,2.788354991367972e-15,7.2310623327905e-15,9.201878321263776e-15,-9.668823197762677e-15,-5.747248113556462e-15,-1.7451138510416673e-15,8.670931696884584e-15,-7.216866406349091e-15,6.307837385805979e-16,-2.0315376960300116e-14,-4.845340336374342e-15,1.1171778808710815e-14,-1.3806506755583456e-15,-1.5055635413727421e-15,4.3923012222502926e-15,-3.065459811639063e-15,-3.4812763880292135e-15,2.291140624379569e-15,9.49312354927123e-15,-2.1073962148714958e-16,1.0298036024968548e-15,-9.581718315039823e-16,-6.069251494676162e-15,-1.1167448457169414e-14,7.042152913951683e-15,-8.618581795435447e-15,-6.9090842667712435e-15,-3.1905568577071853e-15,8.282854446171615e-15,8.567527316300968e-15,5.797408258112144e-15,4.569154702012912e-15,4.759248593548968e-16,1.163880473498048e-14,-3.9375121368760654e-16,2.4041346112051493e-14,-1.4303647202879168e-14,-9.571460722480372e-15,-1.0553083436061128e-14,-1.3312413961968342e-15,-8.501117804951719e-15,-2.2784950043634476e-15,9.443879067227733e-18,-4.164679474080778e-15,-2.0799087255852766e-15,7.016060386952727e-16,-2.1992180531368145e-15,6.3415592525992554e-15,3.808734708604791e-15,-1.8162014570649548e-14,-1.1876601091116276e-14,4.079015127036737e-16,3.842058231542532e-15,5.840995336000465e-15,2.175309875671825e-14,-9.579287313577166e-15,-6.646883158144219e-15,-1.9042528246405567e-15,2.6691953558319873e-15,1.3614854264892848e-14,1.649679106411334e-15,1.7602844173812844e-15,8.229896148580907e-15,-4.697492368652855e-15,1.1029862343884244e-15,4.125230704556685e-15,2.2233562329752688e-15,2.1632689186424187e-14,-6.387944757609434e-15,1.3173916250158948e-14,2.522818486104134e-15,5.051386305719646e-15,7.275072374596676e-15,6.774418922418158e-15,9.88504696842836e-15,6.832827378263111e-15,1.2338930721249828e-14,-7.656555195602575e-15,-5.163743929562358e-15,9.654576968695587e-15,2.2326010634444643e-15,-4.119655942829902e-15,3.521901878904698e-15,1.2316390031456205e-14,1.342546163812181e-14,4.286671312383968e-16,4.197411334656481e-16,-8.553979259955097e-15,4.812654817843041e-15,-9.726027417852178e-15,2.6434253757936517e-15,-1.4240021307270695e-14,3.219175826543092e-15,-2.9842494081235374e-15,5.0930158771444435e-15,-1.9515348757742594e-15,-2.7145022290024664e-16,1.5188156491816204e-15,1.596978777298334e-14,-6.301782255792378e-15,2.030623260841905e-15,-4.765699088177013e-15,-6.795545393032368e-15,1.1102452965549177e-14,1.8513243640484538e-15,3.509948574122305e-15,-8.191253879776517e-15,5.0856710752511255e-15,4.050355646535569e-15,-3.087300966901994e-15,-2.565171216386455e-16,8.4754477866225e-15,-6.668905479336987e-15,2.200808213726762e-15,-1.9680663864746783e-15,1.1180940867100235e-14,1.9899439286871624e-14,-1.7639860655611363e-14,-2.6438474789568804e-15,-2.953028287279525e-15,-8.241591273067527e-15,-5.225296999638868e-16,3.0990584451938797e-15,-3.8023504735441276e-16,-3.32266308308514e-15,1.4211554994134017e-15,-5.50461320315886e-15,-6.928861603365212e-15,1.004338202307944e-14,-6.148197768334448e-15,5.8272470504132944e-15,-7.0362928965253604e-15,8.822352516451011e-15,-3.1772098106191097e-15,1.1029409363450831e-14,-5.7558851279844515e-15,3.675239604505717e-17,4.334270828278766e-15,2.3516855460903957e-15,-1.7159021089124242e-14,-7.07116380667715e-15,4.498060834622835e-16,-7.573512731499839e-15,7.970540873212578e-15,5.467563064653665e-15,-6.9463124669146e-15,1.0524320118875154e-14,8.448605005567925e-15,-6.7278613020716815e-15,-6.4455053099116264e-15,-1.4737104505946667e-14,1.860277339402167e-15,
-2.0411110133331893e-15,1.2763163383015762e-15,4.508574049877834e-15,-1.6751125612474075e-14,6.9131541110184e-15,3.877230269339159e-15,1.7566775495507714e-15,4.45201420707602e-15,6.324214822052369e-15,2.195743424695332e-15,8.594757594446263e-15,3.9736772587370905e-15,1.4521181660742086e-15,-3.4085140774685484e-15,-9.289860897540266e-15,-1.1620710715630802e-14,8.773790530423482e-15,6.7879554145138495e-15,-3.0902550627610206e-15,7.705024512784695e-16,-1.5950987990188569e-15,-1.7380651674013868e-14,1.4237312609256275e-14,-1.9419025691856383e-14,3.992957781366441e-15,-3.558174520597513e-15,-1.1376364075250421e-15,3.3390206441498965e-15,5.723882508090396e-15,4.71020090346045e-15,4.57575878883662e-15,-7.255444547768161e-15,-2.331487735140461e-14,-1.5928144448782594e-14,6.458897721690015e-16,-8.738213959730658e-15,-7.94747629334407e-15,-5.875473245060504e-15,1.14666629045253e-14,2.98633987060317e-15,-3.608566909456108e-15,1.1748829802116903e-14,-6.256655508680647e-15,3.851686117951921e-15,3.2889862162945406e-15,-5.109954969733271e-16,-3.765298632131397e-15,-8.46328582582707e-15,-6.650939230136094e-15,5.821713998149171e-15,3.660802630746703e-15,8.549020796330869e-15,6.529324284438739e-15,1.9270969904196896e-14,-1.7694787343474353e-16,-2.3545581893093886e-15,1.002479377501471e-14,2.125303629125609e-15,5.002746857837633e-15,8.694731648496597e-16,-2.2296735187491048e-15,-5.968385426278752e-15,-6.919100169601315e-15,-1.54418234423135e-15,5.68034887800449e-15,1.4947461143287043e-14,1.0836710275944064e-14,-4.103033522184785e-15,-3.835249319785364e-15,1.436731842459065e-14,-1.4570723166282306e-14,1.4941718267218073e-15,-7.788195647048967e-16,2.0122083023094226e-14,1.3344129489385837e-15,-8.862234489943759e-15,-1.2827619552819162e-15,-4.884842806345831e-15,-1.043448467807919e-14,3.4891900506561427e-15,-1.5742802629996576e-14,1.5827462869316286e-14,-1.2831583943783591e-14,1.5787558229499645e-14,5.899988548205573e-16,-1.1082697023840984e-15,-1.6585455112738137e-14,4.924621427092747e-15,-7.947285404437089e-16,8.222031927842147e-15,-3.915673695597993e-15,-6.778296810336079e-16,-2.3462941196308152e-15,1.2128390664988839e-14,5.280601540424171e-15,1.309222525995009e-14,1.649987310482207e-14,-2.7578269739683417e-15,-5.14885375346719e-16,7.014141672890222e-15,-8.3541748412167e-15,-1.433470536866738e-14,3.898113434497058e-15,-2.1768312067103955e-16,9.458365431630499e-15,-5.335401466287656e-15,-1.3407157042362498e-14,-6.897233991915225e-16,-6.740110960695496e-15,-2.5635276957403233e-16,7.173207908852647e-16,1.2410828324709407e-14,-6.119836683709641e-15,-4.059562522828408e-15,5.249029848954313e-15,5.602017583267154e-15,5.32723363468978e-15,1.3928301642509765e-15,-2.4124284949447264e-15,-4.6964872119191854e-15,3.589163038640446e-15,1.2040294307958345e-14,-5.7793391498449856e-15,-1.7637306469835214e-15,-7.255371387779343e-15,-2.181231932214713e-15,1.3079814781604685e-14,9.205456848513052e-15,4.307039679651986e-15,-1.9820745107775306e-14,-1.4226956506287849e-15,8.197562451587809e-15,-3.864095844440614e-15,-5.956161492925743e-15,8.806930663500835e-15,1.127274135324256e-15,9.407483243097935e-15,1.1080546817433773e-14,2.220524047808099e-14,-8.812644138186918e-15,1.0851962268023042e-16,-7.645650504845826e-15,-1.3623796595908039e-14,1.6715598463032319e-16,3.668317758591778e-15,-4.799306643389976e-15,1.1985931211611544e-14,-7.1280987748472e-15,7.904519120629668e-16,-3.753566139286266e-16,-1.2089372464114399e-14,1.0459321191199029e-14,-3.6442796635762475e-15,1.2947152976767986e-14,-1.0829266572302501e-14,8.828850576129259e-15,4.8142539059428274e-15,-4.941671644033319e-15,-3.381675665076824e-15,-2.2463736104337556e-15,-8.045581689388218e-15,-3.5339471051786146e-15,1.3725372453567038e-14,1.9147504188729715e-16,-9.526458028314081e-16,-5.0550908517433295e-15,8.945238442335679e-16,1.4516876861574956e-14,1.839946663745954e-15,-4.436592364668417e-15,-4.3956737819163443e-16,1.3976378357401403e-14,-8.0553531201361e-15,2.006654874159358e-15,-1.0465328413551367e-14,-1.9417917225648178e-14,-1.7195058805170415e-15,-1.713668515375099e-15,-1.1805289840605722e-14,-9.358931836560409e-15,-1.860197054661312e-15,-4.5045923392105645e-15,1.741720565715289e-15,-9.050143424687043e-15,3.2228579696630547e-15,-4.171458226698104e-15,-1.2646931740689744e-14,1.6721909822246612e-15,2.314780679318305e-17,-1.6373865810055208e-14,-8.570001461759664e-15,8.148861806914202e-15,-5.069313323547456e-15,-1.8416868340065158e-14,6.495116468115642e-15,-3.5187606923666227e-16,-4.599111531004437e-15,1.4641406048613783e-15,-1.2690272045232023e-14,2.81795401407871e-15,-7.505345931209958e-15,6.724645183949205e-15,2.6314944682754488e-14,3.138858352408434e-15,8.750277289443267e-15,-1.159848322988448e-14,1.694940015774329e-14,3.7706796203107844e-15,1.63629371555432e-14,-2.6229930927846375e-15,3.625449953476617e-15,5.6862954090294646e-15,-3.8459314293247235e-15,-3.6889108914010225e-15,3.3874531782357154e-15,1.076825588501844e-14,3.8948312961227904e-15,-7.418331761689622e-15,-1.7920716190459925e-14,1.4996415862904279e-15,-1.0516496303663704e-14,5.436180051272943e-15,-1.161990296612493e-15,-8.8578426831440145e-16,-1.1141267978424002e-14,-5.567417934303299e-15,-9.179681119338683e-15,1.1068731509616847e-14,-6.293594849911854e-15,-3.718391902167285e-15,-2.1581944572207914e-15,7.988751888063862e-15,-2.7689343697046546e-15,8.993886705960708e-15,8.089541437879394e-15,-9.347970479988887e-15,-7.506922595184542e-15,-4.151230643843812e-16,4.926825612482556e-15,2.81033334163098e-15,-8.847931270535414e-15,1.5210445892683253e-14,-4.142062831159316e-15,-5.211107010776669e-15,3.4060079085695174e-15,6.61328987988829e-15,-1.4180033589848642e-15,-8.986218746341942e-15,-2.145767227140658e-15,-1.3096243433846185e-14,
450
6.850345918670727e-15,6.450480989109372e-15,1.952671537148892e-14,3.6808967726523595e-14,2.06707783251069e-14,1.8262557911673377e-14,3.7500090576239365e-14,1.0573989831835263e-14,2.0378241948993423e-14,1.831474785096806e-14,1.8869281785775244e-14,1.5507301745788407e-14,1.0293603390248061e-14,9.12226628159844e-15,2.0237569587050567e-14,2.1832286612169497e-14,1.9784835348528684e-14,4.540778957473945e-14,2.0987592175208297e-14,1.5502121500853267e-14,1.2766069423878619e-14,2.894512383534681e-14,3.309681008502073e-14,3.951843251997385e-14,1.4570310594246044e-14,9.857240331699527e-15,1.2907392539976263e-14,1.284060662563656e-14,1.8160811894639536e-14,1.5497624274167575e-14,1.583948727445704e-14,1.7894629743608707e-14,4.4904572114913633e-14,3.3970670472316026e-14,3.462883618954621e-14,1.7397148664034543e-14,2.1121780440725377e-14,1.3654670027395316e-14,1.729835511144623e-14,5.59858308093686e-16,6.7046615790893785e-15,1.9748681662393103e-14,3.0030988874569265e-14,6.8348907610974104e-15,1.8737564110116366e-14,1.387912900661829e-14,1.6148253406828142e-14,1.879618673534251e-14,1.653018413853068e-14,9.686106285315897e-15,1.7390766043972757e-14,1.4206039407869896e-14,2.1793083314821e-14,3.5344322295502816e-14,9.863502946666787e-15,7.761582858268444e-15,4.288993810966113e-14,1.9520854815211778e-14,1.1693961979638148e-14,1.1902913764335503e-14,1.0176233506456516e-14,1.2778217350825201e-14,1.6572860425171843e-14,1.180517040923323e-14,1.3515143237707167e-14,3.5443135755279225e-14,1.613300868550548e-14,2.227879733088148e-14,4.20927896394858e-15,2.4528434953152105e-14,2.903838373935749e-14,5.9314645053186465e-15,1.639999109947866e-14,4.4588369687149616e-14,1.2626210888810049e-14,2.1154321371645248e-14,1.3197988992039681e-14,1.8098086466696865e-14,2.674499881564761e-14,7.545852230457382e-15,2.613633224523287e-14,2.960551549835341e-14,3.659529043248006e-14,2.6801056405962876e-14,1.7891163116094465e-14,5.950502809665025e-15,3.257495267157767e-14,1.5040042708978073e-14,3.623571982456484e-14,2.172370359099665e-14,3.2717493752656336e-15,2.1251597069256517e-14,5.686886879639207e-15,2.633784658278724e-14,2.1574014531719683e-14,2.1040296962061898e-14,3.240282839695942e-14,2.973926192281234e-14,7.448620345451062e-15,2.4421681013114486e-14,1.7240792528212282e-14,3.1299737303498784e-14,1.0047118543905725e-14,3.955919841678313e-15,2.0788365082919053e-14,1.248582480227515e-14,2.646246438826849e-14,3.989597230443946e-14,1.4498638064956568e-14,2.8992596468367335e-14,2.4614889473815433e-15,2.355319988437037e-14,1.0533967483256732e-14,1.474689760475602e-14,1.4234354098141196e-14,1.1728919019188789e-14,2.055026274652495e-14,1.038906533218997e-14,2.2170756159348417e-15,1.2624749339649772e-14,5.230909985739483e-15,2.877179357251878e-14,8.071597793467743e-15,1.9867092783094188e-14,1.336667851875706e-14,5.90288104837451e-15,2.5046115528763983e-14,1.750218744265859e-14,9.49990135379005e-15,2.936743173182728e-14,7.843142680595447e-15,2.211432825178529e-14,3.585791784152653e-15,4.666559243308805e-14,3.500916651023741e-14,1.812099153026475e-14,2.1088159994502458e-14,1.993964410347285e-14,4.54134064457469e-14,1.54830273238781e-14,1.7151611085634835e-14,1.1783264917440297e-14,1.937211738073855e-14,6.955564555635349e-15,9.251523550988116e-15,9.733381815795717e-15,2.5857125481017403e-14,3.889989072040441e-14,2.4243947860797685e-14,2.1684120063724106e-15,2.7965453543797757e-14,1.72496747746302e-14,3.861446430439649e-14,2.6378278977178037e-14,2.8285624791719208e-14,1.1181270973127644e-14,8.834070038474123e-15,2.208526540720982e-14,9.055682309139639e-15,7.560900365340786e-15,2.0047588790451595e-14,1.1093529162912544e-14,2.474256830342755e-14,5.58702463063023e-15,3.6486289628083784e-15,3.4884196029050075e-14,1.2288615172409076e-14,3.500770029804736e-14,5.981561947470177e-15,1.4084985157435123e-14,1.2129251474565692e-14,2.668434663872546e-14,1.75187050177113e-14,2.1621675483620545e-14,2.9090069787603744e-14,3.433749436478081e-14,1.1564252258390383e-14,1.8822085472866462e-14,2.0026097463136028e-14,1.934508792877954e-14,1.0718438728008744e-14,2.2828779139894903e-14,2.2196587573841598e-14,2.396167998822508e-14,8.246397508767384e-15,1.3269131787798974e-14,2.4265685229391475e-14,1.461674479673062e-14,3.065046644709879e-15,3.7105822428993655e-14,8.52481193146766e-15,1.713102779089577e-14,1.2676190299766992e-14,2.904862751696189e-14,1.902770427219655e-14,8.808154874267641e-15,2.897827965785893e-14,1.8361210586769534e-14,2.131788857762072e-14,7.993792098086357e-15,1.5898986645683383e-14,2.6565488877867392e-14,5.081164361862046e-14,9.935243583946265e-15,1.8199401445993713e-14,2.069875003385403e-14,3.842476401338647e-14,4.415181418823236e-15,3.337370923587685e-14,2.1255247848124017e-14,1.689578786195386e-14,1.1785539430724262e-14,6.304213511714197e-15,2.8230191725289773e-14,3.138641749465326e-14,3.6812559550289176e-14,1.6500326334845015e-14,2.1257112644186313e-14,2.99115491529185e-14,9.488065129332274e-15,1.2678886679550592e-14,2.0906705269749462e-14,3.1446473730057147e-15,3.654367797455624e-15,2.559682979785206e-14,2.4723552196032022e-14,2.8481902291016613e-14,2.416190881085196e-14,1.564502274414002e-14,1.2324238356826385e-14,1.426565066157104e-14,1.5990502784115495e-14,2.2349192277954235e-14,2.2084908026462594e-14,1.686368947051844e-14,2.270363377311398e-14,1.3502294578160829e-14,2.7192429254598998e-14,2.0707791761691956e-14,9.555306383327002e-15,1.7497735639855448e-14,2.4687236288579073e-14,1.5257484417755168e-14,1.9955336758944016e-14,9.782362439044558e-15,2.8290295726676498e-14,1.4557269225907615e-14,2.756356939562415e-14,2.945606070972704e-14,2.7060008943645315e-14,
0.02197090765519548,0.026503841704380297,0.02342527510829516,0.04752355581151272,0.028575769883807008,0.037251966988003815,0.054512646256482215,0.011681690207179518,0.01571348657001973,0.03990183642465152,0.030354917368192284,0.020224041425034367,0.029569318873782235,0.008554382100971026,0.02156912200567176,0.019453414444244112,0.026131237607776664,0.06888273628106119,0.04689805626984277,0.02339374234846957,0.0151798728302905,0.033861743003353595,0.03912744273702109,0.04862327313766451,0.010218842855134153,0.0028649345222138333,0.026831623242764446,0.00774554440189582,0.03297659357544424,0.02467782546891095,0.020759662118763515,0.02898300303972534,0.0294029922912,0.03492518167646688,0.04684687730874636,0.019078489932011694,0.020325501549290616,0.013817903057612017,0.008011803476743228,0.023253015122502295,0.015036007001938417,0.023023765316592563,0.041371995608969876,0.011567743290892515,0.028355506398240755,0.012459904911690915,0.011574455755664233,0.028735247671959053,0.014124865566074778,0.021886278480635252,0.032362121150042326,0.02806467428670643,0.02831072580437222,0.03784002209614827,0.0044882638323726,0.012530408707631176,0.056703083368467244,0.01377609035393992,0.01632258891208408,0.029468669679091748,0.02454165984074276,0.02100577962538332,0.009202681005323619,0.030361003048006575,0.021493313310404206,0.046154098715658065,0.03378607093785595,0.040258808261768815,0.014137823944202097,0.021619213403334173,0.03169604632514325,0.02931768681962514,0.025660993100578768,0.0590974456224656,0.023761641159554207,0.025706379322387073,0.00379692976862496,0.040250747463038354,0.04068567525331264,0.024432879830703202,0.03107305940776838,0.024361018608430866,0.051272882915661726,0.03098232434182346,0.0216865575211478,0.015261673825045152,0.032867647199561534,0.018573782729439787,0.025560260326008923,0.011934893072990905,0.014454457910309986,0.020161572457013673,0.012161468114920752,0.035691763701570234,0.03241823038042935,0.023699305510292184,0.030920061773898923,0.02769230500390759,0.010155499383530765,0.03879500282977545,0.013938323333780063,0.04020796579040212,0.009533201281626881,0.007019492858080709,0.017215099486741537,0.008994336046102013,0.03834931169398103,0.05639620467632903,0.013400531910612742,0.04292292450069498,0.019676826844222835,0.02483280284704007,0.008107511285076929,0.02424510199135599,0.020410561560334013,0.011848743642494173,0.026512767213766053,0.029656975016264346,0.0032826525036605027,0.030729745171002975,0.01140230657020328,0.022947859916163053,0.0061827241796630576,0.030587257555044305,0.0112178730858333,0.007967277476732934,0.02019524554897927,0.017595333676536516,0.004869761663821756,0.019892076173491292,0.014827058041207663,0.02603050225971578,0.00626282647099422,0.048050159644548056,0.033728238855248005,0.029154867362564334,0.019907217644078077,0.02103589612229288,0.06081737937380543,0.014195820962636151,0.0349781755491344,0.012294773204107611,0.00917852467713461,0.02584840144713062,0.02256517912611415,0.015659829789813774,0.026739683763776646,0.047849756803927605,0.03470610414282677,0.015454429355442263,0.04972481055644833,0.014047990834735284,0.04828868306733901,0.028304342798767583,0.031323042083141725,0.012104826205297669,0.014654839108126604,0.01623842280733512,0.014382871324969008,0.016305085620293848,0.029240533615767568,0.010519441737116829,0.036611764589804266,0.01977777695738832,0.005043927451298757,0.026372890927829244,0.022077285700422,0.043181257494066955,0.0183873638976803,0.012750145504662093,0.0062315514280158755,0.028288258767111614,0.00940610641734879,0.041052342575326126,0.031321262035513324,0.038359248393406056,0.01612573240580214,0.027807423809387596,0.01211636545238859,0.0214214420761807,0.03392750039584166,0.02739384713298218,0.02148786863263516,0.03805615263914065,0.013140160204815949,0.0049102299785870225,0.035578497714501243,0.023183621529920533,0.014095907624228682,0.029815323175987365,0.005904702947606484,0.024830155133349383,0.009682971937064218,0.023425814064062356,0.029570210265702914,0.02733573176214806,0.028760856853559006,0.03297086695848796,0.007254607896846408,0.007337964692962925,0.004163795965841812,0.03791331455117178,0.06042639860999861,0.012583498355015961,0.023493641995214753,0.015396224760367807,0.049909833209386543,0.008363151747345848,0.03382659824657941,0.038695496896781076,0.02440709499749266,0.026137787489308766,0.02930287132633015,0.04272011535074539,0.01984080150978938,0.03720861727539878,0.020219189059748448,0.044428089964894606,0.015279834094016509,0.019103035156649132,0.007295197234414672,0.045203247718769886,0.012781452491650178,0.0046083640949910855,0.03633252104706658,0.03752032032326942,0.03838844037190356,0.026110009585616552,0.02012963204257345,0.0022024813030237862,0.018880635130457155,0.015726630999745733,0.018864498752097086,0.01787391929722976,0.031981971284177034,0.032941913540310445,0.007666940640981281,0.02632967629708627,0.03694391009581029,0.030634914499824504,0.00340223023087402,0.012042728042171207,0.0230423932970824,0.04266084242132042,0.025900343478782072,0.03426172220901178,0.010877660996210342,0.046302576192654384,0.03700093088719668,0.03503111725780042,
-5.151615315754888e-15,4.916337452018538e-15,1.8347140871318295e-14,-1.1783178364866986e-14,-1.4624761576140703e-14,-9.899806366207451e-15,3.534451920958714e-14,1.0817338169008667e-15,-1.8451069841670668e-14,1.7937508519487847e-14,9.646715966918217e-15,1.4355048277493745e-14,5.477521453126464e-15,7.524774425271026e-15,-7.462055123210458e-15,1.1333059615229363e-14,1.0727218408338028e-15,3.882634156278517e-14,1.2805440038029214e-14,1.4823182232800806e-14,-1.2128396215642262e-14,7.199746573928311e-15,1.6603427940245618e-14,-3.286953173378606e-15,-1.2765248718997414e-14,9.681065604733631e-15,1.290481572141441e-14,1.0587488946343773e-14,-1.28314166404476e-14,-1.5478744465717364e-14,1.017120431221387e-14,2.5136553577745985e-15,2.3285156136843823e-14,1.9046797543739716e-14,3.4559809631475445e-14,-5.077726419063225e-15,1.5261780487079523e-14,-8.584779899402121e-15,-2.040783332123433e-15,-4.981450625243379e-16,2.3327364560149807e-15,-9.54061464580459e-15,2.2557247896168844e-14,3.3107614757869597e-15,-1.873429429599479e-14,1.3858182132162535e-14,-1.3827557763642228e-14,-1.4719961223085087e-15,-1.2452813751176573e-14,-5.180504851532982e-15,-1.563973268579408e-14,-3.1709133296516184e-15,-1.8357857373434148e-14,8.67310023447164e-15,-9.336747337096925e-15,1.0012221656522032e-16,3.6426717692274215e-14,1.782028180189901e-14,7.097053960722433e-15,8.990564351800976e-15,-9.594783113601278e-15,9.638894266052236e-15,-4.615787867546104e-15,-1.1603006360550392e-14,-5.709227592602493e-15,1.3979520672133576e-14,-1.247942213090186e-14,1.6752554570199405e-14,4.105956914117255e-15,-3.3940992878795117e-15,1.2561914494293093e-14,-1.7571110390272338e-15,-1.4744610843245057e-14,-6.162163758911567e-15,-1.2185285691823781e-14,1.2642643709663354e-14,1.2923373929745622e-14,-3.630104392169604e-15,2.2315930371823833e-14,-4.729278777280228e-15,1.0705990056506935e-14,-1.0892381238298666e-14,2.210500988790746e-14,3.3867968084153085e-15,-1.7871338402036273e-14,-5.708974792735267e-15,-2.092673428253862e-14,6.860384825992967e-15,-3.601712319248365e-14,-1.8213287619024772e-14,-3.2126152147275975e-15,-2.0231120250887754e-14,-3.540929806703206e-15,6.636462792371958e-16,1.7224511756486994e-14,4.354444067445781e-15,1.656840295093713e-14,-2.9155174218444625e-14,5.367828328843006e-15,2.049143222265589e-14,1.422342651173753e-14,-1.717917560845363e-14,-6.73640047192544e-15,-1.201627218492311e-15,1.2031620753478312e-14,-1.0229951356739364e-14,1.8612734252923236e-15,-3.980036271849983e-14,-1.0371802551154471e-14,2.847903936257236e-14,1.0236189339551984e-15,-4.3072106660495307e-16,6.8295856499765154e-15,-1.2498280064026489e-14,-1.0143268382582503e-14,1.5219625896889706e-15,1.6710554655310863e-14,5.4909838546204735e-15,-6.198043258548029e-16,3.5485333321783115e-15,-5.188442370536664e-15,-1.9004046643157203e-14,5.491763846583264e-15,-1.735751936755766e-14,-1.2073249047081839e-14,-5.703549747551129e-15,1.2923553523635408e-14,6.7251908669604856e-15,7.035879378216665e-15,5.359824092565952e-15,2.2710814093307793e-15,1.8444978553383127e-14,-2.2086061005100358e-15,4.453248199594964e-14,-2.933755576451773e-14,-1.7965119663254597e-14,-1.4619590933402368e-14,-2.5118105492866753e-15,-1.9257103451120032e-14,-2.3957978211401706e-15,1.295355329192277e-14,-8.741818438538692e-15,-3.696425386642782e-15,5.864923910851356e-15,-2.533083391453339e-15,8.674513903174439e-15,6.1567762731416824e-15,-3.6299552006482076e-14,-2.388179047171964e-14,-7.767027286659268e-16,4.272278800312641e-15,7.193626254385812e-15,3.722097118921697e-14,-1.5510470864541193e-14,-1.2211440405762724e-14,-2.250009863242194e-15,3.173207101782444e-15,2.1596925894352105e-14,-7.419499663540171e-16,7.129006284994674e-15,1.1124202109664239e-14,-9.360748743017858e-15,2.4855585132889445e-15,6.2493410793001225e-16,-3.2182879092679707e-15,3.3541967338635445e-14,-1.1162285911152854e-14,2.32409898844742e-14,5.3624949702981555e-15,9.805323383841958e-15,1.1104964601655395e-14,1.3306500877164398e-14,1.319939385399142e-14,1.9565070749136236e-14,1.8806421394992984e-14,-1.4651435743237848e-14,-1.0666850321125507e-14,1.880973848118103e-14,1.6745656587738016e-15,-1.1814771011758691e-14,1.3744041430600722e-15,1.7577121283969397e-14,2.1827270347735913e-14,4.01288462495924e-15,3.773950007531718e-15,-1.0842704999786384e-14,2.0455279985103255e-14,-1.4322083913792636e-14,9.525034840958853e-16,-2.384694940627425e-14,2.770275270287599e-15,-1.1320052784801337e-14,8.714049281791564e-15,-5.549499764084925e-15,-5.024438253567312e-15,1.439964373502131e-15,2.8527495282618225e-14,-1.8358010417664854e-14,2.1095184111253632e-15,-7.757666951213469e-15,-1.042070602231258e-14,2.544885356815218e-14,3.271835930142292e-15,9.454133004488133e-15,-6.920151909357746e-15,8.526122661361328e-15,1.2691056756338355e-14,-1.5854838072951541e-15,-4.957573386877153e-15,1.9517049967733228e-14,-1.5692443973111155e-14,2.5044708993637053e-15,-6.276290385989952e-15,2.7671489673796468e-14,3.0645015196444126e-14,-3.0990036977866944e-14,-1.1477924103938109e-14,-6.909108050616328e-15,-1.5213571696562163e-14,-4.739891391233718e-15,5.171199386442259e-16,1.0710831438379642e-15,-2.9446864671514548e-15,-2.9107935899145773e-15,-1.4217821990159537e-14,-1.7635728402449435e-14,2.186580669568953e-14,-1.4424465639405222e-14,7.432678150382393e-15,-1.0948700500435602e-14,1.2675961072601279e-14,-8.32719963946712e-15,2.174861684051557e-14,-1.6197380907137744e-14,3.1006566022130735e-16,1.2056601031959178e-14,3.955933425525663e-15,-2.702516877682927e-14,-1.8302331858833204e-14,-5.612586930593935e-15,-7.213525245036633e-15,1.2236057631085092e-14,1.265464750941702e-14,-1.3106289201011505e-14,9.288956622627009e-15,2.182151868775181e-14,-1.4501924454334576e-14,-8.776135828465347e-15,-2.936789371747087e-14,3.794747132433968e-15,
-4.515318243925711e-15,-4.175922778110401e-15,6.6839385879243e-15,-3.4872006146965303e-14,1.4608128744187182e-14,1.5346493260312672e-14,1.2530832177843667e-14,1.0518512866043785e-14,8.650477826658267e-15,3.698077467798646e-15,1.6216986963199868e-14,5.865918204829999e-15,-8.715218269571092e-15,-5.156889756546568e-15,-1.8811617584059128e-14,-1.8660399204560784e-14,1.9755732778628796e-14,2.3545329789870376e-14,-1.662828105203009e-14,4.537514685419282e-15,3.9842858546649265e-15,-2.803540338776615e-14,2.863084033759752e-14,-3.938149879920447e-14,7.024412854818071e-15,-1.8553047495565934e-15,-2.57901875468872e-16,7.26541508280084e-15,1.285184172294871e-14,7.647404188952574e-16,1.2142321028406737e-14,-1.771720379752901e-14,-3.8395600014927277e-14,-2.8128738963317834e-14,2.185372755069983e-15,-1.6639635694679924e-14,-1.4601632283769094e-14,-1.0618454107631171e-14,1.7177552006995206e-14,-2.555246012112104e-16,-6.285763876960059e-15,1.7291243436572183e-14,-1.9825005930271227e-14,5.979514208242982e-15,3.5003715771044737e-16,7.622401027000688e-16,-8.340547606978465e-15,-1.8738459467250087e-14,-1.0870805735189959e-14,8.184315759651466e-15,7.605097311218322e-15,1.3847630277913624e-14,1.1744256171566551e-14,3.426366079173656e-14,-3.1802263350456434e-15,-7.760937057309293e-15,2.264157744544136e-14,7.96877212734082e-15,9.29411490459509e-15,7.80058387028388e-15,3.3905553204276187e-15,-8.388954404024114e-15,-1.591710416608628e-14,-2.175383135924105e-15,1.225005375627422e-14,3.256975397427101e-14,1.0224382256417852e-14,-1.468661723757322e-14,-9.269019450582359e-16,2.429247231705801e-14,-2.618064236095536e-14,-5.665230090153762e-15,-7.180261774074788e-15,4.416050780014061e-14,3.3075692006880303e-15,-1.696080401176066e-14,-2.6783053795211275e-15,-1.7730286964908017e-14,-1.474090272978228e-14,5.879949670759562e-15,-2.3843020784774194e-14,2.752894075119497e-14,-2.916477018070055e-14,2.6586203787944444e-14,-8.420103126461861e-16,-1.6781211230851797e-15,-2.4963960699847856e-14,1.3384244645372032e-14,3.974195282295185e-15,1.1840416032224524e-14,-6.192313434022998e-16,6.506316268684731e-15,-4.449999829866665e-15,2.6329484161952205e-14,1.2990546476784317e-14,2.0584773817441798e-14,2.7846567324863898e-14,-5.865110059135948e-15,-5.16414214393233e-15,1.3286071991774564e-14,-9.743667957502572e-15,-2.616389651183373e-14,7.45422696978949e-15,-3.769004354144819e-15,1.6952764519841537e-14,-7.158485610229007e-15,-2.6396925630396402e-14,-2.7603864933102123e-15,-1.0130953438767408e-14,-5.4327678914748746e-15,-2.2385558103674615e-15,2.3549261223144288e-14,-8.020051794592416e-15,-7.827131301205883e-15,9.986538094363392e-15,1.1629753704798556e-14,1.19612149074866e-14,8.819397642969091e-15,-2.1286772616872976e-15,-1.2115783386946419e-14,6.651954949704002e-16,2.1602368309153936e-14,-5.9153377581397934e-15,-9.665293428392843e-15,-5.7362663877245886e-15,-1.5210275962218452e-15,2.145436243289283e-14,1.6158538704997653e-14,6.383143982938775e-15,-2.8874181065794495e-14,-7.507135028782288e-15,1.2199437699867376e-14,-2.8248826191696034e-15,-1.3947600668627743e-14,1.9103653093200304e-14,2.3716680891030897e-15,1.51979621296315e-14,1.978080419845593e-14,4.112835337914061e-14,-1.5296544966500633e-14,1.1242029173871973e-14,-7.901008954697131e-15,-1.9016187082958966e-14,-3.739324244771347e-15,8.897987218828257e-15,-4.414921303454466e-15,2.5113443492750234e-14,-1.3983705595732063e-14,-4.174816372244132e-15,2.024535378960547e-15,-2.7637189179848044e-14,1.5678106427203653e-14,-1.027989091610369e-14,2.1336328066423507e-14,-2.5513864722429368e-14,1.0952546561864945e-14,8.24448604425186e-15,-4.6186296691510404e-15,-9.025236414160678e-15,-2.518825862007311e-15,-1.6678067745826617e-14,-5.9533832615144724e-15,2.4617406141321926e-14,5.551963759249026e-15,-1.7190451539455668e-15,-9.583504559768627e-15,5.139400363198127e-15,2.6180058620019807e-14,2.6500435892547506e-15,-1.0111500394276302e-14,-4.878370888855692e-15,2.31298808890509e-14,-1.1518725076361384e-14,9.203524178285803e-15,-2.2193482704650173e-14,-3.105477338370265e-14,4.466568539985896e-15,-6.816449350418728e-16,-1.9955961752255357e-14,-1.531808124119723e-14,-1.0629954939585446e-14,-1.4567016317239803e-14,4.032216399211197e-15,-2.3623269562972692e-14,7.332146562450608e-15,-7.648895782371765e-15,-1.3053926626993957e-14,2.920126849819009e-15,2.9132881846862467e-15,-2.8428244091864076e-14,-8.062133302899818e-15,1.2858013770476164e-14,-9.20603854165377e-15,-2.851360750567379e-14,1.8352344539765383e-14,-8.6896544748413e-15,-5.091434456936008e-15,-3.4279398566245464e-16,-2.121325777623454e-14,1.9285527168004e-15,-1.2007775079345754e-14,7.621092532363333e-15,5.070619505417384e-14,3.0542485501009242e-15,1.683240061737631e-14,-1.8861163413941173e-14,3.6268437626838e-14,4.120687813694072e-15,3.300343821898833e-14,-8.418451261496084e-15,6.262176109541696e-15,1.1516360761429659e-14,5.926946870100632e-16,-5.588594105818976e-15,6.781610926497099e-15,1.9869125515583876e-14,1.1854030007580396e-14,-2.0102961570687397e-14,-2.5753601863836873e-14,8.219294951378709e-15,-1.2668336686477117e-14,2.0879250612394022e-14,-1.1034621473919369e-15,-2.2094534790288927e-15,-2.1285000200994666e-14,-1.7327293986798922e-14,-1.8251171350402594e-14,1.9383823884918675e-14,-1.3766700119399952e-14,-5.657986251983286e-15,-6.544371603437517e-15,1.3651151066971022e-14,-5.146266705235133e-15,1.5012928238235255e-14,1.6860838705249097e-14,-1.923781063582451e-14,-1.2909785033386114e-14,-3.011388608310743e-15,9.686964858754073e-15,7.733223650314008e-15,-1.5941637496238795e-14,2.1441514154016727e-14,-8.52353959165131e-15,-1.504794499399541e-14,-3.0675559899997953e-15,1.8004503727204177e-14,1.2681776044110042e-15,-2.612909867844115e-14,-2.277351781007945e-15,-2.679261051542101e-14,
