250,2,1e-11
0
0.0,0.0,0.0,0.0,0.0,0.0,0.0,0.0,0.0,0.0,0.0,0.0,0.0,0.0,0.0,0.0,0.0,0.0,0.0,0.0,0.0,0.0,0.0,0.0,0.0,0.0,0.0,0.0,0.0,0.0,0.0,0.0,0.0,0.0,0.0,0.0,0.0,0.0,0.0,0.0,0.0,0.0,0.0,0.0,0.0,0.0,0.0,0.0,0.0,0.0,0.0,0.0,0.0,0.0,0.0,0.0,0.0,0.0,0.0,0.0,0.0,0.0,0.0,0.0,0.0,0.0,0.0,0.0,0.0,0.0,0.0,0.0,0.0,0.0,0.0,0.0,0.0,0.0,0.0,0.0,0.0,0.0,0.0,0.0,0.0,0.0,0.0,0.0,0.0,0.0,0.0,0.0,0.0,0.0,0.0,0.0,0.0,0.0,0.0,0.0,0.0,0.0,0.0,0.0,0.0,0.0,0.0,0.0,0.0,0.0,0.0,0.0,0.0,0.0,0.0,0.0,0.0,0.0,0.0,0.0,0.0,0.0,0.0,0.0,0.0,0.0,0.0,0.0,0.0,0.0,0.0,0.0,0.0,0.0,0.0,0.0,0.0,0.0,0.0,0.0,0.0,0.0,0.0,0.0,0.0,0.0,0.0,0.0,0.0,0.0,0.0,0.0,0.0,0.0,0.0,0.0,0.0,0.0,0.0,0.0,0.0,0.0,0.0,0.0,0.0,0.0,0.0,0.0,0.0,0.0,0.0,0.0,0.0,0.0,0.0,0.0,0.0,0.0,0.0,0.0,0.0,0.0,0.0,0.0,0.0,0.0,0.0,0.0,0.0,0.0,0.0,0.0,0.0,0.0,0.0,0.0,0.0,0.0,0.0,0.0,0.0,0.0,0.0,0.0,0.0,0.0,0.0,0.0,0.0,0.0,0.0,0.0,0.0,0.0,0.0,0.0,0.0,0.0,0.0,0.0,0.0,0.0,0.0,0.0,0.0,0.0,0.0,0.0,0.0,0.0,0.0,0.0,0.0,0.0,0.0,0.0,0.0,0.0,0.0,0.0,0.0,0.0,0.0,0.0,0.0,0.0,0.0,0.0,0.0,0.0,
0.0,0.0,0.0,0.0,0.0,0.0,0.0,0.0,0.0,0.0,0.0,0.0,0.0,0.0,0.0,0.0,0.0,0.0,0.0,0.0,0.0,0.0,0.0,0.0,0.0,0.0,0.0,0.0,0.0,0.0,0.0,0.0,0.0,0.0,0.0,0.0,0.0,0.0,0.0,0.0,0.0,0.0,0.0,0.0,0.0,0.0,0.0,0.0,0.0,0.0,0.0,0.0,0.0,0.0,0.0,0.0,0.0,0.0,0.0,0.0,0.0,0.0,0.0,0.0,0.0,0.0,0.0,0.0,0.0,0.0,0.0,0.0,0.0,0.0,0.0,0.0,0.0,0.0,0.0,0.0,0.0,0.0,0.0,0.0,0.0,0.0,0.0,0.0,0.0,0.0,0.0,0.0,0.0,0.0,0.0,0.0,0.0,0.0,0.0,0.0,0.0,0.0,0.0,0.0,0.0,0.0,0.0,0.0,0.0,0.0,0.0,0.0,0.0,0.0,0.0,0.0,0.0,0.0,0.0,0.0,0.0,0.0,0.0,0.0,0.0,0.0,0.0,0.0,0.0,0.0,0.0,0.0,0.0,0.0,0.0,0.0,0.0,0.0,0.0,0.0,0.0,0.0,0.0,0.0,0.0,0.0,0.0,0.0,0.0,0.0,0.0,0.0,0.0,0.0,0.0,0.0,0.0,0.0,0.0,0.0,0.0,0.0,0.0,0.0,0.0,0.0,0.0,0.0,0.0,0.0,0.0,0.0,0.0,0.0,0.0,0.0,0.0,0.0,0.0,0.0,0.0,0.0,0.0,0.0,0.0,0.0,0.0,0.0,0.0,0.0,0.0,0.0,0.0,0.0,0.0,0.0,0.0,0.0,0.0,0.0,0.0,0.0,0.0,0.0,0.0,0.0,0.0,0.0,0.0,0.0,0.0,0.0,0.0,0.0,0.0,0.0,0.0,0.0,0.0,0.0,0.0,0.0,0.0,0.0,0.0,0.0,0.0,0.0,0.0,0.0,0.0,0.0,0.0,0.0,0.0,0.0,0.0,0.0,0.0,0.0,0.0,0.0,0.0,0.0,0.0,0.0,0.0,0.0,0.0,0.0,
0.0,0.0,0.0,0.0,0.0,0.0,0.0,0.0,0.0,0.0,0.0,0.0,0.0,0.0,0.0,0.0,0.0,0.0,0.0,0.0,0.0,0.0,0.0,0.0,0.0,0.0,0.0,0.0,0.0,0.0,0.0,0.0,0.0,0.0,0.0,0.0,0.0,0.0,0.0,0.0,0.0,0.0,0.0,0.0,0.0,0.0,0.0,0.0,0.0,0.0,0.0,0.0,0.0,0.0,0.0,0.0,0.0,0.0,0.0,0.0,0.0,0.0,0.0,0.0,0.0,0.0,0.0,0.0,0.0,0.0,0.0,0.0,0.0,0.0,0.0,0.0,0.0,0.0,0.0,0.0,0.0,0.0,0.0,0.0,0.0,0.0,0.0,0.0,0.0,0.0,0.0,0.0,0.0,0.0,0.0,0.0,0.0,0.0,0.0,0.0,0.0,0.0,0.0,0.0,0.0,0.0,0.0,0.0,0.0,0.0,0.0,0.0,0.0,0.0,0.0,0.0,0.0,0.0,0.0,0.0,0.0,0.0,0.0,0.0,0.0,0.0,0.0,0.0,0.0,0.0,0.0,0.0,0.0,0.0,0.0,0.0,0.0,0.0,0.0,0.0,0.0,0.0,0.0,0.0,0.0,0.0,0.0,0.0,0.0,0.0,0.0,0.0,0.0,0.0,0.0,0.0,0.0,0.0,0.0,0.0,0.0,0.0,0.0,0.0,0.0,0.0,0.0,0.0,0.0,0.0,0.0,0.0,0.0,0.0,0.0,0.0,0.0,0.0,0.0,0.0,0.0,0.0,0.0,0.0,0.0,0.0,0.0,0.0,0.0,0.0,0.0,0.0,0.0,0.0,0.0,0.0,0.0,0.0,0.0,0.0,0.0,0.0,0.0,0.0,0.0,0.0,0.0,0.0,0.0,0.0,0.0,0.0,0.0,0.0,0.0,0.0,0.0,0.0,0.0,0.0,0.0,0.0,0.0,0.0,0.0,0.0,0.0,0.0,0.0,0.0,0.0,0.0,0.0,0.0,0.0,0.0,0.0,0.0,0.0,0.0,0.0,0.0,0.0,0.0,0.0,0.0,0.0,0.0,0.0,0.0,
0.0,0.0,0.0,0.0,0.0,0.0,0.0,0.0,0.0,0.0,0.0,0.0,0.0,0.0,0.0,0.0,0.0,0.0,0.0,0.0,0.0,0.0,0.0,0.0,0.0,0.0,0.0,0.0,0.0,0.0,0.0,0.0,0.0,0.0,0.0,0.0,0.0,0.0,0.0,0.0,0.0,0.0,0.0,0.0,0.0,0.0,0.0,0.0,0.0,0.0,0.0,0.0,0.0,0.0,0.0,0.0,0.0,0.0,0.0,0.0,0.0,0.0,0.0,0.0,0.0,0.0,0.0,0.0,0.0,0.0,0.0,0.0,0.0,0.0,0.0,0.0,0.0,0.0,0.0,0.0,0.0,0.0,0.0,0.0,0.0,0.0,0.0,0.0,0.0,0.0,0.0,0.0,0.0,0.0,0.0,0.0,0.0,0.0,0.0,0.0,0.0,0.0,0.0,0.0,0.0,0.0,0.0,0.0,0.0,0.0,0.0,0.0,0.0,0.0,0.0,0.0,0.0,0.0,0.0,0.0,0.0,0.0,0.0,0.0,0.0,0.0,0.0,0.0,0.0,0.0,0.0,0.0,0.0,0.0,0.0,0.0,0.0,0.0,0.0,0.0,0.0,0.0,0.0,0.0,0.0,0.0,0.0,0.0,0.0,0.0,0.0,0.0,0.0,0.0,0.0,0.0,0.0,0.0,0.0,0.0,0.0,0.0,0.0,0.0,0.0,0.0,0.0,0.0,0.0,0.0,0.0,0.0,0.0,0.0,0.0,0.0,0.0,0.0,0.0,0.0,0.0,0.0,0.0,0.0,0.0,0.0,0.0,0.0,0.0,0.0,0.0,0.0,0.0,0.0,0.0,0.0,0.0,0.0,0.0,0.0,0.0,0.0,0.0,0.0,0.0,0.0,0.0,0.0,0.0,0.0,0.0,0.0,0.0,0.0,0.0,0.0,0.0,0.0,0.0,0.0,0.0,0.0,0.0,0.0,0.0,0.0,0.0,0.0,0.0,0.0,0.0,0.0,0.0,0.0,0.0,0.0,0.0,0.0,0.0,0.0,0.0,0.0,0.0,0.0,0.0,0.0,0.0,0.0,0.0,0.0,
150
1.2346669965679555e-15,7.292306088917933e-16,2.18560770678073e-15,3.606866749880304e-15,5.04056332887043e-15,1.280120910425575e-15,5.247858238213534e-15,1.284795026983276e-15,5.650836627564732e-15,2.7068955729891493e-15,3.5212176326311648e-15,1.3698854316258631e-15,3.2532140001073974e-15,4.011904137516275e-15,9.048648744135413e-16,7.333470717123405e-15,2.8097452230565627e-15,5.2168728991128125e-15,3.8113236853330664e-15,9.459881810813527e-16,1.0185063491071735e-15,6.5081341332793575e-15,4.1149281027912135e-15,8.012658864683883e-15,1.0392998931838023e-15,3.485742685148462e-15,1.4079919017457777e-15,2.508911397907543e-15,2.703099181033225e-15,3.435510523293649e-15,1.6778981976379667e-15,3.2885411385335314e-15,9.103654744350904e-15,5.180985455752156e-15,4.562371713161578e-15,3.6292133840082455e-15,5.8457827012364215e-15,3.014350516846203e-15,3.400043064047524e-15,1.4121806639571912e-15,1.786180253039247e-15,3.748679194549292e-15,5.046193075737475e-16,6.523923839481126e-16,1.580573858895839e-15,2.350325516059217e-15,5.794368409438622e-15,2.8195382242426292e-15,4.682764965019741e-15,1.796060028238193e-15,1.7383221410105494e-15,4.7976996028581684e-15,4.4715843375041916e-15,6.397204886592701e-15,3.330850556515196e-15,2.067921866168963e-15,4.874091869630773e-15,5.541881052386252e-15,1.826783196755687e-15,4.1057050511928917e-16,2.7410819453186706e-15,1.8370455544758857e-15,5.402705619656508e-16,1.1934523093486082e-15,1.3092751431794026e-15,5.0770733974340615e-15,4.967943845369647e-15,2.825452389466294e-15,2.1300021841168394e-15,4.7758263394144025e-15,3.738981594329473e-15,2.9364307605011284e-15,2.3240248263756174e-15,6.075946616522042e-15,3.3261173008224157e-15,3.0401400238529285e-15,5.057555758808943e-15,2.502282013924458e-15,4.802084041439004e-15,3.5620446885260195e-15,4.363818869509084e-15,5.366006588849143e-15,2.2648148541531777e-15,4.230112740451558e-15,2.0463140099237858e-15,3.781040664762916e-15,6.743875184344854e-15,1.246634748656912e-15,5.814548114315429e-15,2.977706352215116e-15,1.7687685266222248e-15,3.757999953807855e-15,2.8695718016492102e-15,5.690603294661393e-15,4.2475519780139344e-15,5.621448855214837e-15,7.040869470669281e-15,7.290889601167589e-15,9.840979506253947e-16,1.7262742734947072e-15,5.2210986160989075e-15,5.325451549965089e-15,2.0127943021671237e-15,1.765054033155514e-15,3.5439498872158878e-15,4.475024172662153e-15,5.193053006173896e-15,5.427472653820374e-15,4.6965956262221355e-15,3.990390392366702e-15,2.2687080503551575e-15,5.886140547729271e-15,4.523714381082865e-15,1.893226361287697e-15,1.7189775099525136e-15,1.4407031079438642e-15,2.569812477650316e-15,1.371893959110239e-15,1.2544472616457798e-15,2.048188576052034e-15,3.9632523725870396e-15,5.7361571712796115e-15,3.982767710762671e-15,1.2418793244943306e-15,3.1854975340947098e-15,1.7203744213489435e-15,6.112435230835124e-15,3.6757914300865635e-15,4.393776184523559e-15,9.90284756173255e-15,1.0204646626475846e-15,6.588036045072075e-15,1.2948322862172212e-15,7.0438711584456375e-15,2.6816299246168323e-15,5.072790305235312e-15,5.661935715030631e-15,5.449942106130773e-15,6.1367043823375184e-15,2.7253262055543096e-15,4.100254407313208e-15,5.3262141015895345e-15,7.318471225132493e-15,2.1346686533227148e-15,1.62156247454396e-15,2.361055948032074e-15,4.1899956936779116e-15,5.112420008372298e-15,2.760148543076484e-15,1.0676624403091258e-15,4.055568689098864e-15,4.496325597906539e-15,8.791718259612132e-15,4.7089899099536876e-15,3.231346717961337e-15,3.3129186439383254e-15,8.354215715302791e-16,5.715465467870337e-15,1.1152952829087773e-15,5.714398448394903e-16,4.869868911325701e-15,1.296125873438839e-15,4.507265028281436e-15,3.2623575427537648e-15,4.327382434910095e-15,6.860555812986229e-15,3.0250998278493343e-15,7.0215622850335716e-15,2.9959037692543377e-15,7.288814513992204e-16,3.050038371768202e-15,4.226080453004857e-15,5.326783990089781e-15,1.325533719516837e-15,4.530787381448044e-15,6.54826236466475e-15,1.473072068967198e-15,4.743062208826884e-15,1.8060362200546664e-15,4.263426920506515e-15,4.959320873746459e-15,4.9255968856494155e-15,4.943463479339555e-15,1.4794718298014402e-15,2.428409414083254e-15,3.186856856215889e-15,5.2183679921809606e-15,4.4302580141843264e-15,1.381354646438711e-15,5.841341570314946e-15,4.317159361563105e-15,4.729199273233319e-15,1.1499444595550328e-15,6.914002144046713e-15,1.0702850747727437e-15,1.2804320917598284e-15,5.0795258837014465e-15,1.0677084770835637e-15,2.5371960579544673e-15,6.187727569648226e-16,4.4943353510218246e-15,2.683242238044038e-15,6.8820639893960344e-15,9.654969225771488e-16,7.036831787506714e-15,4.6561801404006355e-15,3.753908143804818e-15,3.332345516120319e-15,3.752901833450959e-15,4.2536628265834806e-15,3.1460189315650065e-15,2.6721488768983145e-15,3.4949454130018494e-15,3.1764137391997763e-15,8.098304227323019e-15,3.350343650196468e-15,2.3600348134984945e-15,2.444683451110558e-15,5.441269483463894e-15,1.1526419451296382e-15,6.3006614582256395e-15,8.330545360141027e-17,8.690886744975223e-16,2.403453604854454e-15,3.014332387505857e-15,9.860682140063271e-16,5.043404891751768e-15,3.6209312609703826e-15,2.7791285804700054e-15,2.2585588690328636e-15,5.623849806019766e-15,3.085947782014979e-15,2.3828418506300947e-15,2.8566550228810303e-15,2.4183768604788885e-15,3.767280085146008e-16,1.331762704710805e-15,7.33551995467562e-15,3.4587761557193955e-15,1.1521218379159223e-15,4.603262018101575e-15,3.966180277824366e-15,1.4468717752370265e-15,3.097331947954451e-15,5.863220311468242e-15,2.9161079567765163e-15,1.930416724097548e-15,2.3486840817240518e-15,3.557305707278463e-15,4.159615648503056e-15,
0.005836053776085126,0.005165875479715836,0.008248954727409132,0.015761278764349348,0.014083472205158125,0.00284275219975101,0.01304649494800746,0.005308772702955463,0.018169292152209585,0.012640074190821821,0.015683001765127734,0.013259611670396453,0.014086751584657184,0.010294729971808579,0.02006660140607091,0.022000011570972037,0.012893378706308089,0.018430664479169925,0.013041020237781321,0.011902188815810701,0.007573368991421465,0.020393550779726002,0.02880221017923617,0.029622278545988135,0.002920848276907395,0.008512655407933627,0.0026854242805722586,0.01715990511030828,0.010127388131268008,0.00611616198099819,0.008202041976562003,0.0031108378410627576,0.03723139441727211,0.023976706926376736,0.018206446956409546,0.01555366803686893,0.014507563992649264,0.0095545732287954,0.020041313099682,0.010187541770029064,0.0035060805432382295,0.012679502439942291,0.011469792811899209,0.005916968780725745,0.007073908870935035,0.0174666732667286,0.023637515268146565,0.01053827057480177,0.009369970992730726,0.009435421169851417,0.007890154694005313,0.009877624897043616,0.01926774378714772,0.01985535638480833,0.014574102602084605,0.009635767837224807,0.023329399028799474,0.01840255692042863,0.009586093991249114,0.005785382633244949,0.006550175444153702,0.009190341008107505,0.005668996463174859,0.004732143902657908,0.007403089721840462,0.024839034507679467,0.016445378741856562,0.008350820033509522,0.0040820158928317465,0.01662154856677219,0.01912411840671627,0.010115874664099926,0.011921681199551575,0.023950820363511354,0.017022804375520416,0.020258339913026797,0.014612875930416377,0.012354012907996882,0.01810050515370755,0.006221510877699926,0.01792497687149276,0.025123418206061728,0.010422310082811321,0.022935337667687492,0.005371047800435857,0.005278573371993435,0.025632306892889905,0.005497827665757151,0.016111654207067422,0.02081051101845038,0.005835986389236452,0.015893088685632693,0.005562394875307851,0.01594923487060883,0.012345664850242875,0.01739821420779575,0.03404196540250238,0.025082560861047265,0.008163811844212575,0.012064607158977132,0.017736228041007166,0.02098900319616217,0.016419511295107065,0.003600929018848057,0.019306810975075573,0.011467273723456973,0.015506599826675833,0.028710927711064902,0.013246324283597982,0.01605130826090219,0.004077811750499988,0.01614046840508625,0.006024027800270459,0.008644388200467128,0.007266437813925998,0.0108965524894308,0.01415875888158098,0.007552273640838553,0.00042096082681340567,0.012172610281327278,0.018031448609684517,0.018814212298581986,0.015243352001987098,0.008589147441040803,0.016764681583929786,0.003672482194770101,0.025086654383753675,0.016324677813033112,0.007084249390871562,0.027584949299181823,0.0046793033882344655,0.02884460741254746,0.011106076553369634,0.03253253588360304,0.018387235450791635,0.01654189499091075,0.019278320647093873,0.01604878470085777,0.02958523005861654,0.013941626051018974,0.011749196723005574,0.018400774491716815,0.01521373403131137,0.00896191340700628,0.0071287700351086725,0.01168968734772883,0.01007500184491536,0.020521720216834648,0.02152303658240853,0.002734254459725584,0.014555253409447357,0.015577944012698082,0.02715893360814961,0.02382367012190742,0.02140109300395915,0.018889551483058445,0.012240862876453533,0.01429345452687472,0.015365139215694709,0.0017284948089268432,0.013214647756204567,0.00663325016464339,0.019137030306818858,0.013677329255822919,0.01525033487170281,0.0281786682805624,0.010507230059778576,0.020711040157681656,0.007244011004836416,0.004277068787916998,0.010971859071079596,0.017886018746570403,0.0255901814197506,0.005281516903110327,0.01428065239753478,0.033906841677447605,0.005731439919542255,0.012901895069183123,0.013978971523570681,0.01027338155242194,0.012257590268203907,0.018095128235813388,0.017794226655310125,0.015528734637696434,0.007883789111776255,0.01636083681735189,0.017434455826664322,0.014164316972683949,0.006651451081246979,0.0232302301235213,0.015470079697507308,0.014291264285051213,0.020273658248213474,0.026622520904945247,0.0015676167084159546,0.003683705105669389,0.0241403772306258,0.005297554680443045,0.01705739986056859,0.011452595231869228,0.01903834785367739,0.0084256412326874,0.03048710447102792,0.00793024994692659,0.017472822062418358,0.014866062606304905,0.021374298050284735,0.005730720221768835,0.018458560354200956,0.009910524773134918,0.008539993344002456,0.013863330545002762,0.006729754079165791,0.014329898860827923,0.02837445061404633,0.023575624174919037,0.010945795947513059,0.009323062466221693,0.030924657172058702,0.008524195634723558,0.023871580015278435,0.006665236529996727,0.0017141949061241673,0.01328026635873395,0.010968807874180973,0.009548076436427976,0.005870166449259892,0.020499503399405428,0.002074405088571741,0.006906091103636993,0.013662541440938175,0.015237711262936363,0.013000810434009127,0.016875932735388233,0.0117810587298476,0.010906016588355974,0.013129722259763336,0.022488480842845257,0.0023073431396450593,0.007929611168793918,0.011962604484035974,0.023396534693481602,0.006126170018690113,0.009245951982153656,0.013355393449631187,0.012210917939460567,0.011005181794817173,0.015775830927478206,0.018694708203742073,0.015118878274538528,
2.585869315110721e-16,-2.1442809743971447e-16,-3.525832421870039e-16,-3.6987150259612177e-16,-3.550463963137671e-15,8.35638985886283e-17,4.365844411041001e-15,8.380022757732271e-16,-4.820723409041463e-15,2.655813949582043e-15,2.7361278439390094e-15,1.09322173096538e-15,2.527437914326599e-15,3.928344149998746e-15,4.543966643351681e-16,5.314523340595907e-15,-2.2792049292208763e-15,4.127539617298901e-15,3.6388451233789536e-15,7.61264918229208e-16,-3.9463828944313175e-16,2.284250654701574e-15,3.1215124306700932e-15,-1.2914563336913125e-15,-6.590518251288668e-16,5.688940563200674e-16,-9.04905861141249e-16,1.8068560250972573e-15,-1.5903899110938882e-15,-1.3279869919161475e-15,1.6195761050507315e-15,7.635222672519582e-16,6.010256377047666e-15,9.446545647640178e-16,4.492671309364661e-15,-8.216115615803952e-16,4.19801540286981e-15,-1.6377951291221e-15,-1.3628717522155378e-15,-9.841408502554792e-16,1.3797048903249411e-15,1.691199504427431e-15,3.625179861696815e-16,-2.366801087222099e-16,-1.4568657333313428e-15,2.156330555076965e-15,-5.6063515719007065e-15,1.1795330576364674e-16,-3.751332086403346e-15,1.794748511116036e-15,-3.778300460312647e-16,-1.1863402210100195e-15,-3.90767637820872e-15,-4.78063449623301e-16,-3.0352378779422733e-15,2.0457120829297895e-15,4.17192387691141e-15,5.501561446038055e-15,1.486765736890091e-15,-3.8434185438893716e-16,-1.531664547694574e-15,-7.311620921969482e-16,-1.8466746858878312e-16,4.915528022789706e-16,9.637410447067717e-16,4.683739554063145e-15,-4.743637177785393e-16,2.7065434840222224e-15,2.125738988553107e-15,-1.2060354841966475e-15,-1.3574069858066194e-17,-1.788003918007156e-15,-2.28891515290045e-15,-1.2059674092110947e-15,-3.2178947651779736e-15,2.17881499879062e-15,4.758370896142847e-15,2.327458748811841e-15,1.6763928723535072e-15,-1.1444652107174407e-15,3.37040825937419e-16,-2.2779959584390173e-15,-9.890489001512372e-16,4.5366892074232e-16,-2.0228002706591694e-15,-2.5002263445867665e-15,-3.898065131507958e-15,1.083259802131002e-15,-5.7972894081214714e-15,-1.2566842833406391e-15,8.644290302589929e-16,-2.4755598137199166e-15,-2.682010683936068e-15,-7.47106105582866e-16,4.242615721010706e-15,2.8636938760195576e-15,3.2517266780102505e-15,-7.265913717467219e-15,3.496477216009993e-16,8.083937042831607e-16,3.841600373921399e-15,-1.3777624682813778e-15,-1.1398923496721991e-15,-9.591221730967055e-16,1.770937633474867e-15,-2.6724322271634466e-15,-2.848942027981891e-17,-5.4271780281772236e-15,-3.452110714449852e-15,2.8963125344133173e-15,-2.111807502650769e-15,-7.221141642137803e-17,1.6349680945399734e-15,7.236904707770767e-16,-1.4184013040629828e-15,1.440202823538935e-15,2.569768905398468e-15,1.3254105053091188e-15,5.299973915625717e-16,-1.6765708534616309e-15,-2.1203896762080476e-15,-3.3270830633025242e-15,2.538457801310877e-15,-1.0787911491622645e-15,-2.7802946253857853e-15,-1.7179690083897225e-15,2.3017975088858958e-15,3.4680209942674213e-15,4.107495456470889e-15,1.943426796343077e-15,1.0153942380285387e-15,6.317668744746494e-15,5.304439385351742e-16,6.7202737835883554e-15,-1.9590327503989768e-15,-4.012273143646471e-15,-4.562133397983647e-15,1.108159391192375e-15,-2.0328216327029272e-15,1.0845880807964179e-16,-3.687008107930393e-15,-1.1763041006540442e-15,-1.957529108150361e-15,1.6886481346937104e-15,-1.587109651162051e-15,2.1238807037429722e-15,3.1698050756907272e-15,-4.902891187352681e-15,-1.5479632154732345e-15,1.0414449230251425e-15,2.3063770599990845e-15,2.1204784476789132e-15,8.448843559847199e-15,-3.5323372596159212e-15,-3.038872504363897e-15,-1.544587266492174e-15,-6.755334541281341e-16,5.427696096589995e-15,-4.962197519912748e-16,5.359257083308735e-16,4.866932016026165e-15,1.0784455716903629e-16,1.4810061024972815e-15,3.176505212760485e-15,4.326607432045268e-15,6.837159329278112e-15,-2.5511191291690535e-15,5.022983153899492e-15,2.9382546643381216e-15,7.235095250670324e-16,2.6940311529017257e-15,2.1136083863749427e-15,4.6862979028694185e-15,8.326455252981067e-16,3.856551644729348e-15,-2.7199053599277038e-15,-9.144934164012946e-16,3.8040179114487235e-15,1.7657595970734227e-15,-2.5399896986701203e-15,4.9219866922987375e-15,4.815699544632061e-15,4.905710933329806e-15,-9.675735991062526e-17,-1.8983918489709236e-15,-3.094775674233854e-15,-1.819958806999736e-15,-4.140638787753526e-15,7.193364852377058e-16,-3.3084803994560985e-15,7.051935194907117e-16,2.5135520760043682e-15,-1.1392248787304612e-15,-2.258138434285797e-15,7.425276484182033e-16,-6.043655511719486e-16,4.62985083900441e-15,-6.779429256759389e-16,-5.4800852064001556e-17,1.395841826788021e-16,-2.7012133939297135e-15,1.953826258233055e-15,5.214716173872076e-16,-2.9513868875348606e-16,-5.203382061303103e-15,1.0394213216256786e-15,-2.4634020536482417e-15,-2.328384089727939e-15,6.808290437927264e-16,4.234789803554548e-15,-2.999992946964124e-15,2.1801405247200876e-15,-1.0269463113593644e-15,3.1093204141752117e-15,7.696386669260176e-15,-2.7143450231694575e-15,2.203072344289893e-15,-2.155155894023412e-15,-2.559170178343972e-15,9.339469299208533e-16,3.2936244703745043e-15,-6.194602024359062e-19,-6.2920997979745565e-16,2.1702256325436135e-15,-5.750278303291775e-16,-7.486371761619025e-16,1.9621294424386754e-15,-1.6747507817455631e-15,2.526598210635769e-15,-1.5981292276136856e-15,5.5316409504036585e-15,-2.0886684336679385e-15,1.8046557949747296e-15,-4.991400605754567e-17,4.867597582690847e-16,-1.3240785431886447e-16,-1.9708453461631756e-17,-7.334731600884486e-15,-7.832631883545856e-16,1.055385874557531e-15,-2.866647240208205e-15,2.442462320448552e-15,3.3714205111377123e-16,-1.0954536240904544e-15,5.205181527044489e-15,2.915857618771561e-15,-1.3753600170893996e-15,-4.767872124321643e-16,-3.5557160066270825e-15,1.7881928140372543e-15,
-1.2072843042406472e-15,-6.96992017151617e-16,2.156980784631199e-15,-3.587852118323635e-15,3.577916197846744e-15,1.2773905511477188e-15,-2.911944138710031e-15,9.738842062380154e-16,2.948318233323331e-15,5.23388869076985e-16,2.216433630401392e-15,8.255012675495025e-16,2.0482819434148182e-15,-8.145471427675871e-16,-7.824986341128696e-16,-5.0532795708497854e-15,1.6431351463298548e-15,3.190482652064695e-15,1.1335759358957986e-15,5.615775663424273e-16,-9.389439832476815e-16,-6.0940962285847836e-15,2.681192539955492e-15,-7.907897484158847e-15,8.036136881401241e-16,-3.439005905745105e-15,-1.0786967033665702e-15,-1.7406630079139735e-15,2.185727593547116e-15,3.1684669960349758e-15,4.385380275249099e-16,-3.1986773152723367e-15,-6.837641990225914e-15,-5.094137615532768e-15,7.94443298837959e-16,-3.5349885754471687e-15,-4.0681497105370665e-15,-2.530599959186536e-15,3.1149435668067288e-15,1.0127788576550144e-15,-1.1343960119644244e-15,3.3455104154480144e-15,-3.5102899492732357e-16,6.079460081033055e-16,6.12989362444253e-16,-9.350232984693441e-16,-1.4640789994213917e-15,-2.817069898959681e-15,-2.802819169182531e-15,6.86251184461687e-17,1.6967640738309827e-15,4.6487114730083355e-15,2.1737368310359884e-15,6.379317024508173e-15,1.3718223114317958e-15,3.022629953116799e-16,2.520282269678789e-15,6.672834886803499e-16,1.0614445306084495e-15,-1.4439348544439703e-16,-2.27322105046728e-15,-1.6852710061452417e-15,5.077304463706021e-16,-1.0875220720800187e-15,8.862305565116479e-16,1.9594024784706734e-15,4.945244697080366e-15,-8.110509073033831e-16,-1.3469616508171157e-16,4.621038371957425e-15,-3.738956954467658e-15,2.3293062487376568e-15,-4.024410720005209e-16,5.955062543311055e-15,8.415518873310111e-16,-2.120192577497977e-15,-1.7137026195353224e-15,-9.188857653642595e-16,-4.499968675287142e-15,3.3731827321557766e-15,-4.3507836774005394e-15,4.8584731269101325e-15,-2.0374416793377196e-15,4.205714957921315e-15,3.0932198795357905e-16,2.8363950243971823e-15,-5.503175513514373e-15,-6.169654752463746e-16,-4.476664965928435e-16,2.6995332433639113e-15,-1.5431476119979104e-15,-2.8273958445033573e-15,-1.0204219794149279e-15,5.641347208266117e-15,-2.0471846463592813e-16,4.8373489243845416e-15,6.245007327018851e-15,-6.029668537617716e-16,9.19888714576025e-16,1.5252942293882281e-15,-3.53581353101615e-15,-5.144142765516989e-15,1.6589111893031618e-15,1.4817221051981372e-15,3.0697492896717056e-15,-3.58942158810146e-15,-5.192974858196779e-15,5.655137874842312e-17,-3.184484588034527e-15,2.7449206156996213e-15,-8.290387744214508e-16,5.88569758473548e-15,-4.217922608518589e-15,-1.749450815993724e-15,9.710928999611589e-16,3.7964092371458e-17,1.4964729680714847e-17,-3.5409042271627847e-16,-1.136987553664272e-15,-1.1765146052612343e-15,3.3483304779915515e-15,4.672688453503829e-15,-3.0689852767417566e-15,6.152023350863161e-16,-1.554784980559818e-15,-9.094303625977131e-17,5.662472311565075e-15,1.2183074410091368e-15,1.5600481514227066e-15,-9.710277139102056e-15,1.0160053686320699e-16,1.8679616063565546e-15,-1.1811942590030687e-15,-2.1104599428554276e-15,1.8312099102682625e-15,3.1040080060564655e-15,3.3532752496837492e-15,5.336089553585966e-15,5.790231159963781e-15,-2.723167202657779e-15,-1.793894483169769e-15,-5.194695883182739e-15,-7.051815430358082e-15,1.3058628322584513e-15,-3.3248731409995674e-16,-1.0313660581994608e-15,2.740145925888756e-15,-1.4486187721360057e-15,2.285219872001161e-15,2.3515007708268526e-16,-3.335905012003348e-15,3.964910470025625e-15,-2.4313273036812392e-15,3.114029456568245e-15,-1.0985697583224304e-15,2.9308156061998146e-15,-4.915117033518463e-16,-1.790715107849381e-15,9.988240715022278e-16,-1.9831069416507096e-16,1.691034147380077e-16,-1.2916314610935302e-15,4.257001169783098e-15,7.434994082498307e-16,-8.18954634828894e-17,-5.661080896475671e-16,1.6257368044187849e-15,4.906320123906285e-15,-5.848922312081262e-16,-8.832970808913247e-17,1.4300105651544766e-15,3.659564944677885e-15,-2.532437490371381e-15,-1.0313782384640373e-15,-2.3780335799614317e-15,-5.956664740399726e-15,-1.1548346685694838e-15,-2.8330349179244242e-15,-3.792886413965645e-16,-3.4242169086010503e-15,-6.073800536825946e-16,-1.0346702739277756e-15,-6.097798046609461e-16,-1.4763044768878632e-15,1.5143581710311899e-15,-7.605393797697872e-16,-4.890717170583763e-15,1.5755305460686767e-15,-1.179277609489674e-15,-4.814065723222346e-15,-4.259174456769793e-15,4.0059183375556574e-15,1.5664908471766612e-16,-6.534847852818292e-15,7.708195849975729e-16,1.128826214332869e-15,-2.089512960419992e-15,8.248604618734318e-16,-2.5366041676053337e-15,-6.028233412101245e-16,-3.592004516686913e-15,1.8391171416368776e-15,6.862278929510315e-15,9.19280948299712e-16,4.737279465027791e-15,-4.538680074207831e-15,2.832574213362425e-15,2.383936695784725e-15,3.690629212566314e-15,4.002533722139005e-16,-9.473528571397966e-16,1.5451106474237196e-15,-3.3406623165845515e-15,-6.494080416582433e-16,2.5195562298770234e-15,1.9639586730903964e-15,-8.463076076403354e-16,-1.1540278370082655e-15,-4.801881047042952e-15,6.755194932521552e-16,-5.371254291068364e-15,8.330315041338063e-17,5.995080695563202e-16,-1.0328165057446278e-15,-2.9589766367299487e-15,6.41773247449565e-16,-4.64607156135815e-15,3.2103509178460836e-15,-1.1575219863127252e-15,-1.5959546161260017e-15,1.014216464314137e-15,2.271681731123946e-15,1.556005381346215e-15,2.856218918736921e-15,2.3688840362140033e-15,-3.5269271684293613e-16,-1.3316168662647636e-15,-1.0754230995628663e-16,3.3689213812645804e-15,-4.621097112020024e-16,-3.601715536727361e-15,3.1248942077120046e-15,-1.4070441255868075e-15,-2.89714455167263e-15,2.6987844840462076e-15,-3.8209457299856875e-17,-1.3545824271956858e-15,-2.2997806134075308e-15,1.063370831454519e-16,-3.755631611739499e-15,
