t(col):150.0	t(s):1.5e-09	sd:2.8429383720114008e-15	vsd:1.8952922480076004e-17
t(col):300.0	t(s):3e-09	sd:8.245591175847775e-15	vsd:3.601768535890916e-17
t(col):450.0	t(s):4.5e-09	sd:1.5314887362463e-14	vsd:4.71286412441015e-17
t(col):600.0	t(s):6e-09	sd:2.3689899772006025e-14	vsd:5.583341606362016e-17
t(col):750.0	t(s):7.5e-09	sd:3.321965298656849e-14	vsd:6.35316880970831e-17
t(col):900.0	t(s):9e-09	sd:4.373033030604847e-14	vsd:7.007118212986652e-17
t(col):1050.0	t(s):1.05e-08	sd:5.4880162018861454e-14	vsd:7.433221141875324e-17
t(col):1200.0	t(s):1.2e-08	sd:6.66584975756591e-14	vsd:7.852223704531768e-17
t(col):1350.0	t(s):1.3499999999999998e-08	sd:7.933102525666065e-14	vsd:8.448351787334365e-17
t(col):1500.0	t(s):1.5e-08	sd:9.269003256024302e-14	vsd:8.906004869054912e-17
mean vsd:5.617577730923819e-17
